digraph G {
compound = true;
"11" [ label="11: coco_fibo_Fibo_Fibonacci_B_Fibonacci_B___A__B_, Fib" ];
"11" -> "13" [ label="A?fibonacci(Long)" ];
"13" [ label="13: " ];
"13" -> "11" [ label="A!fibonacci(Long)" ];
"11" -> "12" [ label="A?stop()" ];
"12" [ label="12: " ];
}
