digraph G {
NAME C;
compound = true;
24 [ label=24: HttpLong_Request_C_Request_C___C__S_, HttpLong_Http_C_Http_C___C__S_ ];
24 -> 26 [ label=S!REQUESTL() ];
26 [ label=26: X ];
26 -> 26 [ label=S!HOST() ];
26 -> 26 [ label=S!USERA() ];
26 -> 26 [ label=S!ACCEPT() ];
26 -> 26 [ label=S!ACCEPTL() ];
26 -> 26 [ label=S!ACCEPTE() ];
26 -> 26 [ label=S!DNT() ];
26 -> 26 [ label=S!CONNECTION() ];
26 -> 26 [ label=S!UPGRADEIR() ];
26 -> 27 [ label=S!BODY() ];
27 [ label=27: HttpLong_Response_C_Response_C___C__S_ ];
27 -> 28 [ label=S?HTTPV() ];
28 [ label=28:  ];
28 -> 29 [ label=S?200() ];
29 [ label=29: Y ];
29 -> 29 [ label=S?DATE() ];
29 -> 29 [ label=S?SERVER() ];
29 -> 29 [ label=S?STRICTTS() ];
29 -> 29 [ label=S?LASTM() ];
29 -> 29 [ label=S?ETAG() ];
29 -> 29 [ label=S?ACCEPTR() ];
29 -> 29 [ label=S?CONTENTL() ];
29 -> 29 [ label=S?VARY() ];
29 -> 29 [ label=S?CONTENTT() ];
29 -> 29 [ label=S?VIA() ];
29 -> 25 [ label=S?BODY() ];
25 [ label=25:  ];
28 -> 29 [ label=S?404() ];
}


digraph G {
NAME S;
compound = true;
54 [ label=54: HttpLong_Request_S_Request_S___C__S_, HttpLong_Http_S_Http_S___C__S_ ];
54 -> 56 [ label=C?REQUESTL() ];
56 [ label=56: X ];
56 -> 56 [ label=C?HOST() ];
56 -> 56 [ label=C?USERA() ];
56 -> 56 [ label=C?ACCEPT() ];
56 -> 56 [ label=C?ACCEPTL() ];
56 -> 56 [ label=C?ACCEPTE() ];
56 -> 56 [ label=C?DNT() ];
56 -> 56 [ label=C?CONNECTION() ];
56 -> 56 [ label=C?UPGRADEIR() ];
56 -> 57 [ label=C?BODY() ];
57 [ label=57: HttpLong_Response_S_Response_S___C__S_ ];
57 -> 58 [ label=C!HTTPV() ];
58 [ label=58:  ];
58 -> 59 [ label=C!200() ];
59 [ label=59: Y ];
59 -> 59 [ label=C!DATE() ];
59 -> 59 [ label=C!SERVER() ];
59 -> 59 [ label=C!STRICTTS() ];
59 -> 59 [ label=C!LASTM() ];
59 -> 59 [ label=C!ETAG() ];
59 -> 59 [ label=C!ACCEPTR() ];
59 -> 59 [ label=C!CONTENTL() ];
59 -> 59 [ label=C!VARY() ];
59 -> 59 [ label=C!CONTENTT() ];
59 -> 59 [ label=C!VIA() ];
59 -> 55 [ label=C!BODY() ];
55 [ label=55:  ];
58 -> 59 [ label=C!404() ];
}
