%!PS-Adobe-3.0 EPSF-3.0
%%Title: ./plots/parametrised-benchmarks-X-1-2-Y-10-11-P-1-50-False.csvplot-b.eps
%%Creator: matplotlib version 2.2.2, http://matplotlib.org/
%%CreationDate: Thu Apr 25 09:57:03 2019
%%Orientation: portrait
%%BoundingBox: 90 226 521 565
%%EndComments
%%BeginProlog
/mpldict 9 dict def
mpldict begin
/m { moveto } bind def
/l { lineto } bind def
/r { rlineto } bind def
/c { curveto } bind def
/cl { closepath } bind def
/box {
m
1 index 0 r
0 exch r
neg 0 r
cl
} bind def
/clipbox {
box
clip
newpath
} bind def
%!PS-Adobe-3.0 Resource-Font
%%Title: DejaVu Sans
%%Copyright: Copyright (c) 2003 by Bitstream, Inc. All Rights Reserved. Copyright (c) 2006 by Tavmjong Bah. All Rights Reserved. DejaVu changes are in public domain 
%%Creator: Converted from TrueType to type 3 by PPR
25 dict begin
/_d{bind def}bind def
/_m{moveto}_d
/_l{lineto}_d
/_cl{closepath eofill}_d
/_c{curveto}_d
/_sc{7 -1 roll{setcachedevice}{pop pop pop pop pop pop}ifelse}_d
/_e{exec}_d
/FontName /DejaVuSans def
/PaintType 0 def
/FontMatrix[.001 0 0 .001 0 0]def
/FontBBox[-1021 -463 1793 1232]def
/FontType 3 def
/Encoding [ /space /parenleft /parenright /asterisk /comma /period /zero /one /two /three /four /five /six /eight /equal /N /T /a /b /c /d /e /f /h /i /k /m /n /o /r /s /t /u /w /minus ] def
/FontInfo 10 dict dup begin
/FamilyName (DejaVu Sans) def
/FullName (DejaVu Sans) def
/Notice (Copyright (c) 2003 by Bitstream, Inc. All Rights Reserved. Copyright (c) 2006 by Tavmjong Bah. All Rights Reserved. DejaVu changes are in public domain ) def
/Weight (Book) def
/Version (Version 2.35) def
/ItalicAngle 0.0 def
/isFixedPitch false def
/UnderlinePosition -130 def
/UnderlineThickness 90 def
end readonly def
/CharStrings 36 dict dup begin
/.notdef 0 def
/space{318 0 0 0 0 0 _sc
}_d
/parenleft{390 0 86 -131 310 759 _sc
310 759 _m
266 683 234 609 213 536 _c
191 463 181 389 181 314 _c
181 238 191 164 213 91 _c
234 17 266 -56 310 -131 _c
232 -131 _l
183 -54 146 20 122 94 _c
98 168 86 241 86 314 _c
86 386 98 459 122 533 _c
146 607 182 682 232 759 _c
310 759 _l
_cl}_d
/parenright{390 0 80 -131 304 759 _sc
80 759 _m
158 759 _l
206 682 243 607 267 533 _c
291 459 304 386 304 314 _c
304 241 291 168 267 94 _c
243 20 206 -54 158 -131 _c
80 -131 _l
123 -56 155 17 177 91 _c
198 164 209 238 209 314 _c
209 389 198 463 177 536 _c
155 609 123 683 80 759 _c
_cl}_d
/asterisk{500 0 30 286 470 742 _sc
470 609 _m
295 514 _l
470 419 _l
442 371 _l
278 470 _l
278 286 _l
222 286 _l
222 470 _l
58 371 _l
30 419 _l
205 514 _l
30 609 _l
58 657 _l
222 558 _l
222 742 _l
278 742 _l
278 558 _l
442 657 _l
470 609 _l
_cl}_d
/comma{318 0 77 -115 220 124 _sc
117 124 _m
220 124 _l
220 40 _l
140 -115 _l
77 -115 _l
117 40 _l
117 124 _l
_cl}_d
/period{318 0 107 0 210 124 _sc
107 124 _m
210 124 _l
210 0 _l
107 0 _l
107 124 _l
_cl}_d
/zero{636 0 66 -13 570 742 _sc
318 664 _m
267 664 229 639 203 589 _c
177 539 165 464 165 364 _c
165 264 177 189 203 139 _c
229 89 267 64 318 64 _c
369 64 407 89 433 139 _c
458 189 471 264 471 364 _c
471 464 458 539 433 589 _c
407 639 369 664 318 664 _c
318 742 _m
399 742 461 709 505 645 _c
548 580 570 486 570 364 _c
570 241 548 147 505 83 _c
461 19 399 -13 318 -13 _c
236 -13 173 19 130 83 _c
87 147 66 241 66 364 _c
66 486 87 580 130 645 _c
173 709 236 742 318 742 _c
_cl}_d
/one{636 0 110 0 544 729 _sc
124 83 _m
285 83 _l
285 639 _l
110 604 _l
110 694 _l
284 729 _l
383 729 _l
383 83 _l
544 83 _l
544 0 _l
124 0 _l
124 83 _l
_cl}_d
/two{{636 0 73 0 536 742 _sc
192 83 _m
536 83 _l
536 0 _l
73 0 _l
73 83 _l
110 121 161 173 226 239 _c
290 304 331 346 348 365 _c
380 400 402 430 414 455 _c
426 479 433 504 433 528 _c
433 566 419 598 392 622 _c
365 646 330 659 286 659 _c
255 659 222 653 188 643 _c
154 632 117 616 78 594 _c
78 694 _l
118 710 155 722 189 730 _c
223 738 255 742 284 742 _c
}_e{359 742 419 723 464 685 _c
509 647 532 597 532 534 _c
532 504 526 475 515 449 _c
504 422 484 390 454 354 _c
446 344 420 317 376 272 _c
332 227 271 164 192 83 _c
_cl}_e}_d
/three{{636 0 76 -13 556 742 _sc
406 393 _m
453 383 490 362 516 330 _c
542 298 556 258 556 212 _c
556 140 531 84 482 45 _c
432 6 362 -13 271 -13 _c
240 -13 208 -10 176 -4 _c
144 1 110 10 76 22 _c
76 117 _l
103 101 133 89 166 81 _c
198 73 232 69 268 69 _c
330 69 377 81 409 105 _c
441 129 458 165 458 212 _c
458 254 443 288 413 312 _c
383 336 341 349 287 349 _c
}_e{202 349 _l
202 430 _l
291 430 _l
339 430 376 439 402 459 _c
428 478 441 506 441 543 _c
441 580 427 609 401 629 _c
374 649 336 659 287 659 _c
260 659 231 656 200 650 _c
169 644 135 635 98 623 _c
98 711 _l
135 721 170 729 203 734 _c
235 739 266 742 296 742 _c
370 742 429 725 473 691 _c
517 657 539 611 539 553 _c
539 513 527 479 504 451 _c
481 423 448 403 406 393 _c
_cl}_e}_d
/four{636 0 49 0 580 729 _sc
378 643 _m
129 254 _l
378 254 _l
378 643 _l
352 729 _m
476 729 _l
476 254 _l
580 254 _l
580 172 _l
476 172 _l
476 0 _l
378 0 _l
378 172 _l
49 172 _l
49 267 _l
352 729 _l
_cl}_d
/five{{636 0 77 -13 549 729 _sc
108 729 _m
495 729 _l
495 646 _l
198 646 _l
198 467 _l
212 472 227 476 241 478 _c
255 480 270 482 284 482 _c
365 482 429 459 477 415 _c
525 370 549 310 549 234 _c
549 155 524 94 475 51 _c
426 8 357 -13 269 -13 _c
238 -13 207 -10 175 -6 _c
143 -1 111 6 77 17 _c
77 116 _l
106 100 136 88 168 80 _c
199 72 232 69 267 69 _c
}_e{323 69 368 83 401 113 _c
433 143 450 183 450 234 _c
450 284 433 324 401 354 _c
368 384 323 399 267 399 _c
241 399 214 396 188 390 _c
162 384 135 375 108 363 _c
108 729 _l
_cl}_e}_d
/six{{636 0 70 -13 573 742 _sc
330 404 _m
286 404 251 388 225 358 _c
199 328 186 286 186 234 _c
186 181 199 139 225 109 _c
251 79 286 64 330 64 _c
374 64 409 79 435 109 _c
461 139 474 181 474 234 _c
474 286 461 328 435 358 _c
409 388 374 404 330 404 _c
526 713 _m
526 623 _l
501 635 476 644 451 650 _c
425 656 400 659 376 659 _c
310 659 260 637 226 593 _c
}_e{192 549 172 482 168 394 _c
187 422 211 444 240 459 _c
269 474 301 482 336 482 _c
409 482 467 459 509 415 _c
551 371 573 310 573 234 _c
573 159 550 99 506 54 _c
462 9 403 -13 330 -13 _c
246 -13 181 19 137 83 _c
92 147 70 241 70 364 _c
70 479 97 571 152 639 _c
206 707 280 742 372 742 _c
396 742 421 739 447 735 _c
472 730 498 723 526 713 _c
_cl}_e}_d
/eight{{636 0 68 -13 568 742 _sc
318 346 _m
271 346 234 333 207 308 _c
180 283 167 249 167 205 _c
167 161 180 126 207 101 _c
234 76 271 64 318 64 _c
364 64 401 76 428 102 _c
455 127 469 161 469 205 _c
469 249 455 283 429 308 _c
402 333 365 346 318 346 _c
219 388 _m
177 398 144 418 120 447 _c
96 476 85 511 85 553 _c
85 611 105 657 147 691 _c
188 725 245 742 318 742 _c
}_e{390 742 447 725 489 691 _c
530 657 551 611 551 553 _c
551 511 539 476 515 447 _c
491 418 459 398 417 388 _c
464 377 501 355 528 323 _c
554 291 568 251 568 205 _c
568 134 546 80 503 43 _c
459 5 398 -13 318 -13 _c
237 -13 175 5 132 43 _c
89 80 68 134 68 205 _c
68 251 81 291 108 323 _c
134 355 171 377 219 388 _c
183 544 _m
183 506 194 476 218 455 _c
}_e{242 434 275 424 318 424 _c
360 424 393 434 417 455 _c
441 476 453 506 453 544 _c
453 582 441 611 417 632 _c
393 653 360 664 318 664 _c
275 664 242 653 218 632 _c
194 611 183 582 183 544 _c
_cl}_e}_d
/equal{838 0 106 172 732 454 _sc
106 454 _m
732 454 _l
732 372 _l
106 372 _l
106 454 _l
106 255 _m
732 255 _l
732 172 _l
106 172 _l
106 255 _l
_cl}_d
/N{748 0 98 0 650 729 _sc
98 729 _m
231 729 _l
554 119 _l
554 729 _l
650 729 _l
650 0 _l
517 0 _l
194 610 _l
194 0 _l
98 0 _l
98 729 _l
_cl}_d
/T{611 0 -2 0 614 729 _sc
-2 729 _m
614 729 _l
614 646 _l
355 646 _l
355 0 _l
256 0 _l
256 646 _l
-2 646 _l
-2 729 _l
_cl}_d
/a{{613 0 60 -13 522 560 _sc
343 275 _m
270 275 220 266 192 250 _c
164 233 150 205 150 165 _c
150 133 160 107 181 89 _c
202 70 231 61 267 61 _c
317 61 357 78 387 114 _c
417 149 432 196 432 255 _c
432 275 _l
343 275 _l
522 312 _m
522 0 _l
432 0 _l
432 83 _l
411 49 385 25 355 10 _c
325 -5 287 -13 243 -13 _c
187 -13 142 2 109 33 _c
76 64 60 106 60 159 _c
}_e{60 220 80 266 122 298 _c
163 329 224 345 306 345 _c
432 345 _l
432 354 _l
432 395 418 427 391 450 _c
364 472 326 484 277 484 _c
245 484 215 480 185 472 _c
155 464 127 453 100 439 _c
100 522 _l
132 534 164 544 195 550 _c
226 556 256 560 286 560 _c
365 560 424 539 463 498 _c
502 457 522 395 522 312 _c
_cl}_e}_d
/b{{635 0 91 -13 580 760 _sc
487 273 _m
487 339 473 390 446 428 _c
418 466 381 485 334 485 _c
286 485 249 466 222 428 _c
194 390 181 339 181 273 _c
181 207 194 155 222 117 _c
249 79 286 61 334 61 _c
381 61 418 79 446 117 _c
473 155 487 207 487 273 _c
181 464 _m
199 496 223 520 252 536 _c
281 552 316 560 356 560 _c
422 560 476 533 518 481 _c
559 428 580 359 580 273 _c
}_e{580 187 559 117 518 65 _c
476 13 422 -13 356 -13 _c
316 -13 281 -5 252 10 _c
223 25 199 49 181 82 _c
181 0 _l
91 0 _l
91 760 _l
181 760 _l
181 464 _l
_cl}_e}_d
/c{{550 0 55 -13 488 560 _sc
488 526 _m
488 442 _l
462 456 437 466 411 473 _c
385 480 360 484 334 484 _c
276 484 230 465 198 428 _c
166 391 150 339 150 273 _c
150 206 166 154 198 117 _c
230 80 276 62 334 62 _c
360 62 385 65 411 72 _c
437 79 462 90 488 104 _c
488 21 _l
462 9 436 0 410 -5 _c
383 -10 354 -13 324 -13 _c
242 -13 176 12 128 64 _c
}_e{79 115 55 185 55 273 _c
55 362 79 432 128 483 _c
177 534 244 560 330 560 _c
358 560 385 557 411 551 _c
437 545 463 537 488 526 _c
_cl}_e}_d
/d{{635 0 55 -13 544 760 _sc
454 464 _m
454 760 _l
544 760 _l
544 0 _l
454 0 _l
454 82 _l
435 49 411 25 382 10 _c
353 -5 319 -13 279 -13 _c
213 -13 159 13 117 65 _c
75 117 55 187 55 273 _c
55 359 75 428 117 481 _c
159 533 213 560 279 560 _c
319 560 353 552 382 536 _c
411 520 435 496 454 464 _c
148 273 _m
148 207 161 155 188 117 _c
215 79 253 61 301 61 _c
}_e{348 61 385 79 413 117 _c
440 155 454 207 454 273 _c
454 339 440 390 413 428 _c
385 466 348 485 301 485 _c
253 485 215 466 188 428 _c
161 390 148 339 148 273 _c
_cl}_e}_d
/e{{615 0 55 -13 562 560 _sc
562 296 _m
562 252 _l
149 252 _l
153 190 171 142 205 110 _c
238 78 284 62 344 62 _c
378 62 412 66 444 74 _c
476 82 509 95 541 113 _c
541 28 _l
509 14 476 3 442 -3 _c
408 -9 373 -13 339 -13 _c
251 -13 182 12 131 62 _c
80 112 55 181 55 268 _c
55 357 79 428 127 481 _c
175 533 241 560 323 560 _c
397 560 455 536 498 489 _c
}_e{540 441 562 377 562 296 _c
472 322 _m
471 371 457 410 431 440 _c
404 469 368 484 324 484 _c
274 484 234 469 204 441 _c
174 413 156 373 152 322 _c
472 322 _l
_cl}_e}_d
/f{352 0 23 0 371 760 _sc
371 760 _m
371 685 _l
285 685 _l
253 685 230 678 218 665 _c
205 652 199 629 199 595 _c
199 547 _l
347 547 _l
347 477 _l
199 477 _l
199 0 _l
109 0 _l
109 477 _l
23 477 _l
23 547 _l
109 547 _l
109 585 _l
109 645 123 690 151 718 _c
179 746 224 760 286 760 _c
371 760 _l
_cl}_d
/h{634 0 91 0 549 760 _sc
549 330 _m
549 0 _l
459 0 _l
459 327 _l
459 379 448 417 428 443 _c
408 469 378 482 338 482 _c
289 482 251 466 223 435 _c
195 404 181 362 181 309 _c
181 0 _l
91 0 _l
91 760 _l
181 760 _l
181 462 _l
202 494 227 519 257 535 _c
286 551 320 560 358 560 _c
420 560 468 540 500 501 _c
532 462 549 405 549 330 _c
_cl}_d
/i{278 0 94 0 184 760 _sc
94 547 _m
184 547 _l
184 0 _l
94 0 _l
94 547 _l
94 760 _m
184 760 _l
184 646 _l
94 646 _l
94 760 _l
_cl}_d
/k{579 0 91 0 576 760 _sc
91 760 _m
181 760 _l
181 311 _l
449 547 _l
564 547 _l
274 291 _l
576 0 _l
459 0 _l
181 267 _l
181 0 _l
91 0 _l
91 760 _l
_cl}_d
/m{{974 0 91 0 889 560 _sc
520 442 _m
542 482 569 511 600 531 _c
631 550 668 560 711 560 _c
767 560 811 540 842 500 _c
873 460 889 403 889 330 _c
889 0 _l
799 0 _l
799 327 _l
799 379 789 418 771 444 _c
752 469 724 482 686 482 _c
639 482 602 466 575 435 _c
548 404 535 362 535 309 _c
535 0 _l
445 0 _l
445 327 _l
445 379 435 418 417 444 _c
398 469 369 482 331 482 _c
}_e{285 482 248 466 221 435 _c
194 404 181 362 181 309 _c
181 0 _l
91 0 _l
91 547 _l
181 547 _l
181 462 _l
201 495 226 520 255 536 _c
283 552 317 560 357 560 _c
397 560 430 550 458 530 _c
486 510 506 480 520 442 _c
_cl}_e}_d
/n{634 0 91 0 549 560 _sc
549 330 _m
549 0 _l
459 0 _l
459 327 _l
459 379 448 417 428 443 _c
408 469 378 482 338 482 _c
289 482 251 466 223 435 _c
195 404 181 362 181 309 _c
181 0 _l
91 0 _l
91 547 _l
181 547 _l
181 462 _l
202 494 227 519 257 535 _c
286 551 320 560 358 560 _c
420 560 468 540 500 501 _c
532 462 549 405 549 330 _c
_cl}_d
/o{612 0 55 -13 557 560 _sc
306 484 _m
258 484 220 465 192 427 _c
164 389 150 338 150 273 _c
150 207 163 156 191 118 _c
219 80 257 62 306 62 _c
354 62 392 80 420 118 _c
448 156 462 207 462 273 _c
462 337 448 389 420 427 _c
392 465 354 484 306 484 _c
306 560 _m
384 560 445 534 490 484 _c
534 433 557 363 557 273 _c
557 183 534 113 490 63 _c
445 12 384 -13 306 -13 _c
227 -13 165 12 121 63 _c
77 113 55 183 55 273 _c
55 363 77 433 121 484 _c
165 534 227 560 306 560 _c
_cl}_d
/r{411 0 91 0 411 560 _sc
411 463 _m
401 469 390 473 378 476 _c
366 478 353 480 339 480 _c
288 480 249 463 222 430 _c
194 397 181 350 181 288 _c
181 0 _l
91 0 _l
91 547 _l
181 547 _l
181 462 _l
199 495 224 520 254 536 _c
284 552 321 560 365 560 _c
371 560 378 559 386 559 _c
393 558 401 557 411 555 _c
411 463 _l
_cl}_d
/s{{521 0 54 -13 472 560 _sc
443 531 _m
443 446 _l
417 458 391 468 364 475 _c
336 481 308 485 279 485 _c
234 485 200 478 178 464 _c
156 450 145 430 145 403 _c
145 382 153 366 169 354 _c
185 342 217 330 265 320 _c
296 313 _l
360 299 405 279 432 255 _c
458 230 472 195 472 151 _c
472 100 452 60 412 31 _c
372 1 316 -13 246 -13 _c
216 -13 186 -10 154 -5 _c
}_e{122 0 89 8 54 20 _c
54 113 _l
87 95 120 82 152 74 _c
184 65 216 61 248 61 _c
290 61 323 68 346 82 _c
368 96 380 117 380 144 _c
380 168 371 187 355 200 _c
339 213 303 226 247 238 _c
216 245 _l
160 257 119 275 95 299 _c
70 323 58 356 58 399 _c
58 450 76 490 112 518 _c
148 546 200 560 268 560 _c
301 560 332 557 362 552 _c
391 547 418 540 443 531 _c
}_e{_cl}_e}_d
/t{392 0 27 0 368 702 _sc
183 702 _m
183 547 _l
368 547 _l
368 477 _l
183 477 _l
183 180 _l
183 135 189 106 201 94 _c
213 81 238 75 276 75 _c
368 75 _l
368 0 _l
276 0 _l
206 0 158 13 132 39 _c
106 65 93 112 93 180 _c
93 477 _l
27 477 _l
27 547 _l
93 547 _l
93 702 _l
183 702 _l
_cl}_d
/u{634 0 85 -13 543 560 _sc
85 216 _m
85 547 _l
175 547 _l
175 219 _l
175 167 185 129 205 103 _c
225 77 255 64 296 64 _c
344 64 383 79 411 110 _c
439 141 453 183 453 237 _c
453 547 _l
543 547 _l
543 0 _l
453 0 _l
453 84 _l
431 50 405 26 377 10 _c
348 -5 315 -13 277 -13 _c
214 -13 166 6 134 45 _c
101 83 85 140 85 216 _c
311 560 _m
311 560 _l
_cl}_d
/w{818 0 42 0 776 547 _sc
42 547 _m
132 547 _l
244 120 _l
356 547 _l
462 547 _l
574 120 _l
686 547 _l
776 547 _l
633 0 _l
527 0 _l
409 448 _l
291 0 _l
185 0 _l
42 547 _l
_cl}_d
/minus{838 0 106 272 732 355 _sc
106 355 _m
732 355 _l
732 272 _l
106 272 _l
106 355 _l
_cl}_d
end readonly def

/BuildGlyph
 {exch begin
 CharStrings exch
 2 copy known not{pop /.notdef}if
 true 3 1 roll get exec
 end}_d

/BuildChar {
 1 index /Encoding get exch get
 1 index /BuildGlyph get exec
}_d

FontName currentdict end definefont pop
%!PS-Adobe-3.0 Resource-Font
%%Title: DejaVu Sans Oblique
%%Copyright: Copyright (c) 2003 by Bitstream, Inc. All Rights Reserved. Copyright (c) 2006 by Tavmjong Bah. All Rights Reserved. DejaVu changes are in public domain 
%%Creator: Converted from TrueType to type 3 by PPR
25 dict begin
/_d{bind def}bind def
/_m{moveto}_d
/_l{lineto}_d
/_cl{closepath eofill}_d
/_c{curveto}_d
/_sc{7 -1 roll{setcachedevice}{pop pop pop pop pop pop}ifelse}_d
/_e{exec}_d
/FontName /DejaVuSans-Oblique def
/PaintType 0 def
/FontMatrix[.001 0 0 .001 0 0]def
/FontBBox[-1016 -350 1659 1068]def
/FontType 3 def
/Encoding [ /F /R /S /T /k /x ] def
/FontInfo 10 dict dup begin
/FamilyName (DejaVu Sans) def
/FullName (DejaVu Sans Oblique) def
/Notice (Copyright (c) 2003 by Bitstream, Inc. All Rights Reserved. Copyright (c) 2006 by Tavmjong Bah. All Rights Reserved. DejaVu changes are in public domain ) def
/Weight (Oblique) def
/Version (Version 2.35) def
/ItalicAngle -11.0 def
/isFixedPitch false def
/UnderlinePosition -130 def
/UnderlineThickness 90 def
end readonly def
/CharStrings 7 dict dup begin
/.notdef 0 def
/F{575 0 27 0 587 729 _sc
169 729 _m
587 729 _l
571 646 _l
251 646 _l
209 431 _l
498 431 _l
482 348 _l
193 348 _l
125 0 _l
27 0 _l
169 729 _l
_cl}_d
/R{{695 0 27 0 600 729 _sc
252 648 _m
202 389 _l
329 389 _l
379 389 419 402 450 430 _c
480 458 496 494 496 538 _c
496 573 485 600 465 619 _c
444 638 414 648 376 648 _c
252 648 _l
433 350 _m
453 345 471 333 485 314 _c
499 294 515 256 533 199 _c
595 0 _l
491 0 _l
434 187 _l
419 235 402 267 383 283 _c
363 299 334 308 295 308 _c
186 308 _l
126 0 _l
27 0 _l
169 729 _l
}_e{391 729 _l
458 729 510 713 546 683 _c
582 653 600 609 600 552 _c
600 501 584 457 554 420 _c
523 382 483 359 433 350 _c
_cl}_e}_d
/S{{635 0 6 -13 603 742 _sc
603 705 _m
584 609 _l
551 626 518 639 486 648 _c
454 657 422 662 392 662 _c
333 662 286 649 251 623 _c
216 597 199 563 199 521 _c
199 497 205 479 218 467 _c
231 454 264 441 318 427 _c
377 412 _l
443 394 490 372 516 346 _c
542 320 555 283 555 235 _c
555 161 526 102 468 56 _c
410 10 334 -13 240 -13 _c
201 -13 162 -9 123 -2 _c
}_e{84 5 45 16 6 32 _c
26 134 _l
62 111 98 94 134 83 _c
170 71 207 66 243 66 _c
304 66 353 79 391 107 _c
428 134 447 170 447 214 _c
447 243 439 265 424 280 _c
409 295 377 309 329 322 _c
270 337 _l
202 354 156 374 132 397 _c
107 420 95 452 95 494 _c
95 566 123 626 179 672 _c
235 718 307 742 397 742 _c
431 742 466 739 500 733 _c
534 727 569 717 603 705 _c
}_e{_cl}_e}_d
/T{611 0 43 0 676 729 _sc
59 729 _m
676 729 _l
660 646 _l
400 646 _l
275 0 _l
176 0 _l
301 646 _l
43 646 _l
59 729 _l
_cl}_d
/k{579 0 35 0 612 760 _sc
183 760 _m
273 760 _l
187 317 _l
495 547 _l
612 547 _l
268 285 _l
519 0 _l
410 0 _l
177 267 _l
125 0 _l
35 0 _l
183 760 _l
_cl}_d
/x{592 0 -25 0 600 547 _sc
600 547 _m
349 279 _l
503 0 _l
400 0 _l
284 217 _l
83 0 _l
-25 0 _l
243 288 _l
100 547 _l
203 547 _l
308 349 _l
491 547 _l
600 547 _l
_cl}_d
end readonly def

/BuildGlyph
 {exch begin
 CharStrings exch
 2 copy known not{pop /.notdef}if
 true 3 1 roll get exec
 end}_d

/BuildChar {
 1 index /Encoding get exch get
 1 index /BuildGlyph get exec
}_d

FontName currentdict end definefont pop
end
%%EndProlog
mpldict begin
90.451 226.719 translate
431.098 338.562 0 0 clipbox
gsave
0 0 m
431.098125 0 l
431.098125 338.562463 l
0 338.562463 l
cl
1.000 setgray
fill
grestore
gsave
63.278125 61.750463 m
420.398125 61.750463 l
420.398125 327.862463 l
63.278125 327.862463 l
cl
1.000 setgray
fill
grestore
0.800 setlinewidth
1 setlinejoin
0 setlinecap
[0.8 1.32] 0 setdash
0.502 setgray
gsave
357.1 266.1 63.28 61.75 clipbox
79.510852 61.750463 m
79.510852 327.862463 l
stroke
grestore
[] 0 setdash
0.000 setgray
gsave
/o {
gsave
newpath
translate
0.8 setlinewidth
1 setlinejoin
0 setlinecap
0 0 m
0 -3.5 l

gsave
0.000 setgray
fill
grestore
stroke
grestore
} bind def
79.5109 61.7505 o
grestore
/DejaVuSans findfont
12.000 scalefont
setfont
gsave
72.050825 42.849008 translate
40.000000 rotate
0.000000 0.000000 m /zero glyphshow
grestore
[0.8 1.32] 0 setdash
0.502 setgray
gsave
357.1 266.1 63.28 61.75 clipbox
141.944419 61.750463 m
141.944419 327.862463 l
stroke
grestore
[] 0 setdash
0.000 setgray
gsave
/o {
gsave
newpath
translate
0.8 setlinewidth
1 setlinejoin
0 setlinecap
0 0 m
0 -3.5 l

gsave
0.000 setgray
fill
grestore
stroke
grestore
} bind def
141.944 61.7505 o
grestore
gsave
122.778275 33.026410 translate
40.000000 rotate
0.000000 0.000000 m /two glyphshow
7.634766 0.000000 m /zero glyphshow
15.269531 0.000000 m /zero glyphshow
grestore
[0.8 1.32] 0 setdash
0.502 setgray
gsave
357.1 266.1 63.28 61.75 clipbox
204.377985 61.750463 m
204.377985 327.862463 l
stroke
grestore
[] 0 setdash
0.000 setgray
gsave
/o {
gsave
newpath
translate
0.8 setlinewidth
1 setlinejoin
0 setlinecap
0 0 m
0 -3.5 l

gsave
0.000 setgray
fill
grestore
stroke
grestore
} bind def
204.378 61.7505 o
grestore
gsave
185.211841 33.026410 translate
40.000000 rotate
0.000000 0.000000 m /four glyphshow
7.634766 0.000000 m /zero glyphshow
15.269531 0.000000 m /zero glyphshow
grestore
[0.8 1.32] 0 setdash
0.502 setgray
gsave
357.1 266.1 63.28 61.75 clipbox
266.811552 61.750463 m
266.811552 327.862463 l
stroke
grestore
[] 0 setdash
0.000 setgray
gsave
/o {
gsave
newpath
translate
0.8 setlinewidth
1 setlinejoin
0 setlinecap
0 0 m
0 -3.5 l

gsave
0.000 setgray
fill
grestore
stroke
grestore
} bind def
266.812 61.7505 o
grestore
gsave
247.645408 33.026410 translate
40.000000 rotate
0.000000 0.000000 m /six glyphshow
7.634766 0.000000 m /zero glyphshow
15.269531 0.000000 m /zero glyphshow
grestore
[0.8 1.32] 0 setdash
0.502 setgray
gsave
357.1 266.1 63.28 61.75 clipbox
329.245118 61.750463 m
329.245118 327.862463 l
stroke
grestore
[] 0 setdash
0.000 setgray
gsave
/o {
gsave
newpath
translate
0.8 setlinewidth
1 setlinejoin
0 setlinecap
0 0 m
0 -3.5 l

gsave
0.000 setgray
fill
grestore
stroke
grestore
} bind def
329.245 61.7505 o
grestore
gsave
310.078974 33.026410 translate
40.000000 rotate
0.000000 0.000000 m /eight glyphshow
7.634766 0.000000 m /zero glyphshow
15.269531 0.000000 m /zero glyphshow
grestore
[0.8 1.32] 0 setdash
0.502 setgray
gsave
357.1 266.1 63.28 61.75 clipbox
391.678684 61.750463 m
391.678684 327.862463 l
stroke
grestore
[] 0 setdash
0.000 setgray
gsave
/o {
gsave
newpath
translate
0.8 setlinewidth
1 setlinejoin
0 setlinecap
0 0 m
0 -3.5 l

gsave
0.000 setgray
fill
grestore
stroke
grestore
} bind def
391.679 61.7505 o
grestore
gsave
366.659482 28.115111 translate
40.000000 rotate
0.000000 0.000000 m /one glyphshow
7.634766 0.000000 m /zero glyphshow
15.269531 0.000000 m /zero glyphshow
22.904297 0.000000 m /zero glyphshow
grestore
gsave
119.838125 10.325000 translate
0.000000 rotate
/DejaVuSans findfont
15.0 scalefont
setfont
0.000000 0.609375 moveto
/N glyphshow

11.220703 0.609375 moveto
/u glyphshow

20.727539 0.609375 moveto
/m glyphshow

35.339355 0.609375 moveto
/b glyphshow

44.860840 0.609375 moveto
/e glyphshow

54.089355 0.609375 moveto
/r glyphshow

60.256348 0.609375 moveto
/space glyphshow

65.024414 0.609375 moveto
/o glyphshow

74.201660 0.609375 moveto
/f glyphshow

79.482422 0.609375 moveto
/space glyphshow

84.250488 0.609375 moveto
/t glyphshow

90.131836 0.609375 moveto
/r glyphshow

96.298828 0.609375 moveto
/a glyphshow

105.490723 0.609375 moveto
/n glyphshow

114.997559 0.609375 moveto
/s glyphshow

122.812500 0.609375 moveto
/i glyphshow

126.979980 0.609375 moveto
/t glyphshow

132.861328 0.609375 moveto
/i glyphshow

137.028809 0.609375 moveto
/o glyphshow

146.206055 0.609375 moveto
/n glyphshow

155.712891 0.609375 moveto
/s glyphshow

163.527832 0.609375 moveto
/space glyphshow

168.295898 0.609375 moveto
/i glyphshow

172.463379 0.609375 moveto
/n glyphshow

181.970215 0.609375 moveto
/space glyphshow

/DejaVuSans-Oblique findfont
15.0 scalefont
setfont
186.738281 0.609375 moveto
/R glyphshow

197.160645 0.609375 moveto
/T glyphshow

206.323242 0.609375 moveto
/S glyphshow

/DejaVuSans-Oblique findfont
10.5 scalefont
setfont
215.844727 -1.851562 moveto
/k glyphshow

/DejaVuSans findfont
15.0 scalefont
setfont
222.335449 0.609375 moveto
/parenleft glyphshow

/DejaVuSans-Oblique findfont
15.0 scalefont
setfont
228.187500 0.609375 moveto
/S glyphshow

/DejaVuSans findfont
15.0 scalefont
setfont
237.708984 0.609375 moveto
/parenright glyphshow


grestore
[0.8 1.32] 0 setdash
0.502 setgray
gsave
357.1 266.1 63.28 61.75 clipbox
63.278125 77.327989 m
420.398125 77.327989 l
stroke
grestore
[] 0 setdash
0.000 setgray
gsave
/o {
gsave
newpath
translate
0.8 setlinewidth
1 setlinejoin
0 setlinecap
0 0 m
-3.5 0 l

gsave
0.000 setgray
fill
grestore
stroke
grestore
} bind def
63.2781 77.328 o
grestore
gsave
48.637500 72.765489 translate
0.000000 rotate
0.000000 0.000000 m /zero glyphshow
grestore
[0.8 1.32] 0 setdash
0.502 setgray
gsave
357.1 266.1 63.28 61.75 clipbox
63.278125 114.087557 m
420.398125 114.087557 l
stroke
grestore
[] 0 setdash
0.000 setgray
gsave
/o {
gsave
newpath
translate
0.8 setlinewidth
1 setlinejoin
0 setlinecap
0 0 m
-3.5 0 l

gsave
0.000 setgray
fill
grestore
stroke
grestore
} bind def
63.2781 114.088 o
grestore
gsave
33.356250 109.525057 translate
0.000000 rotate
0.000000 0.000000 m /two glyphshow
7.634766 0.000000 m /zero glyphshow
15.269531 0.000000 m /zero glyphshow
grestore
[0.8 1.32] 0 setdash
0.502 setgray
gsave
357.1 266.1 63.28 61.75 clipbox
63.278125 150.847125 m
420.398125 150.847125 l
stroke
grestore
[] 0 setdash
0.000 setgray
gsave
/o {
gsave
newpath
translate
0.8 setlinewidth
1 setlinejoin
0 setlinecap
0 0 m
-3.5 0 l

gsave
0.000 setgray
fill
grestore
stroke
grestore
} bind def
63.2781 150.847 o
grestore
gsave
33.356250 146.284625 translate
0.000000 rotate
0.000000 0.000000 m /four glyphshow
7.634766 0.000000 m /zero glyphshow
15.269531 0.000000 m /zero glyphshow
grestore
[0.8 1.32] 0 setdash
0.502 setgray
gsave
357.1 266.1 63.28 61.75 clipbox
63.278125 187.606693 m
420.398125 187.606693 l
stroke
grestore
[] 0 setdash
0.000 setgray
gsave
/o {
gsave
newpath
translate
0.8 setlinewidth
1 setlinejoin
0 setlinecap
0 0 m
-3.5 0 l

gsave
0.000 setgray
fill
grestore
stroke
grestore
} bind def
63.2781 187.607 o
grestore
gsave
33.356250 183.044193 translate
0.000000 rotate
0.000000 0.000000 m /six glyphshow
7.634766 0.000000 m /zero glyphshow
15.269531 0.000000 m /zero glyphshow
grestore
[0.8 1.32] 0 setdash
0.502 setgray
gsave
357.1 266.1 63.28 61.75 clipbox
63.278125 224.366261 m
420.398125 224.366261 l
stroke
grestore
[] 0 setdash
0.000 setgray
gsave
/o {
gsave
newpath
translate
0.8 setlinewidth
1 setlinejoin
0 setlinecap
0 0 m
-3.5 0 l

gsave
0.000 setgray
fill
grestore
stroke
grestore
} bind def
63.2781 224.366 o
grestore
gsave
33.356250 219.803761 translate
0.000000 rotate
0.000000 0.000000 m /eight glyphshow
7.634766 0.000000 m /zero glyphshow
15.269531 0.000000 m /zero glyphshow
grestore
[0.8 1.32] 0 setdash
0.502 setgray
gsave
357.1 266.1 63.28 61.75 clipbox
63.278125 261.125829 m
420.398125 261.125829 l
stroke
grestore
[] 0 setdash
0.000 setgray
gsave
/o {
gsave
newpath
translate
0.8 setlinewidth
1 setlinejoin
0 setlinecap
0 0 m
-3.5 0 l

gsave
0.000 setgray
fill
grestore
stroke
grestore
} bind def
63.2781 261.126 o
grestore
gsave
25.715625 256.563329 translate
0.000000 rotate
0.000000 0.000000 m /one glyphshow
7.634766 0.000000 m /zero glyphshow
15.269531 0.000000 m /zero glyphshow
22.904297 0.000000 m /zero glyphshow
grestore
[0.8 1.32] 0 setdash
0.502 setgray
gsave
357.1 266.1 63.28 61.75 clipbox
63.278125 297.885397 m
420.398125 297.885397 l
stroke
grestore
[] 0 setdash
0.000 setgray
gsave
/o {
gsave
newpath
translate
0.8 setlinewidth
1 setlinejoin
0 setlinecap
0 0 m
-3.5 0 l

gsave
0.000 setgray
fill
grestore
stroke
grestore
} bind def
63.2781 297.885 o
grestore
gsave
25.715625 293.322897 translate
0.000000 rotate
0.000000 0.000000 m /one glyphshow
7.634766 0.000000 m /two glyphshow
15.269531 0.000000 m /zero glyphshow
22.904297 0.000000 m /zero glyphshow
grestore
/DejaVuSans findfont
15.000 scalefont
setfont
gsave
18.590625 137.322088 translate
90.000000 rotate
0.000000 0.000000 m /T glyphshow
9.162598 0.000000 m /i glyphshow
13.330078 0.000000 m /m glyphshow
27.941895 0.000000 m /e glyphshow
37.170410 0.000000 m /space glyphshow
41.938477 0.000000 m /parenleft glyphshow
47.790527 0.000000 m /s glyphshow
55.605469 0.000000 m /e glyphshow
64.833984 0.000000 m /c glyphshow
73.081055 0.000000 m /o glyphshow
82.258301 0.000000 m /n glyphshow
91.765137 0.000000 m /d glyphshow
101.286621 0.000000 m /s glyphshow
109.101562 0.000000 m /parenright glyphshow
grestore
1.500 setlinewidth
2 setlinecap
1.000 0.647 0.000 setrgbcolor
gsave
357.1 266.1 63.28 61.75 clipbox
79.510852 73.846463 m
86.136455 73.962746 l
92.762058 74.092888 l
99.387661 74.23854 l
106.013264 74.401551 l
112.638867 74.58399 l
119.26447 74.788172 l
125.890073 75.016688 l
132.515676 75.27244 l
139.141279 75.558672 l
145.766882 75.879017 l
152.392485 76.237541 l
159.018088 76.638794 l
165.643691 77.087869 l
172.269294 77.590465 l
178.894897 78.15296 l
185.5205 78.782495 l
192.146103 79.487057 l
198.771706 80.27559 l
205.397309 81.1581 l
212.022912 82.145788 l
218.648515 83.25119 l
225.274118 84.488335 l
231.899721 85.872923 l
238.525324 87.422527 l
245.150926 89.156813 l
251.776529 91.097794 l
258.402132 93.270101 l
265.027735 95.701305 l
271.653338 98.422262 l
278.278941 101.467504 l
284.904544 104.87568 l
291.530147 108.690044 l
298.15575 112.959007 l
304.781353 117.736747 l
311.406956 123.083902 l
318.032559 129.068333 l
324.658162 135.765993 l
331.283765 143.261884 l
337.909368 151.65114 l
344.534971 161.040233 l
351.160574 171.548324 l
357.786177 183.308776 l
364.41178 196.470845 l
371.037383 211.201578 l
377.662986 227.687929 l
384.288589 246.139133 l
390.914192 266.789364 l
397.539795 289.900702 l
404.165398 315.766463 l
stroke
grestore
1.000 setlinewidth
0 setlinecap
0.000 0.000 1.000 setrgbcolor
gsave
357.1 266.1 63.28 61.75 clipbox
/o {
gsave
newpath
translate
1.0 setlinewidth
1 setlinejoin
0 setlinecap
0 -1.25 m
0.331504 -1.25 0.649475 -1.118292 0.883883 -0.883883 c
1.118292 -0.649475 1.25 -0.331504 1.25 0 c
1.25 0.331504 1.118292 0.649475 0.883883 0.883883 c
0.649475 1.118292 0.331504 1.25 0 1.25 c
-0.331504 1.25 -0.649475 1.118292 -0.883883 0.883883 c
-1.118292 0.649475 -1.25 0.331504 -1.25 0 c
-1.25 -0.331504 -1.118292 -0.649475 -0.883883 -0.883883 c
-0.649475 -1.118292 -0.331504 -1.25 0 -1.25 c
cl

gsave
0.000 0.000 1.000 setrgbcolor
fill
grestore
stroke
grestore
} bind def
91.9976 77.334 o
104.484 77.3522 o
116.971 77.3677 o
129.458 77.392 o
141.944 77.4626 o
154.431 77.6099 o
166.918 77.8615 o
179.405 78.1744 o
191.891 78.8495 o
204.378 79.7852 o
216.865 81.2518 o
229.351 82.9602 o
241.838 85.1105 o
254.325 88.3502 o
266.812 93.3272 o
279.298 98.7784 o
291.785 105.909 o
304.272 115.413 o
316.758 127.884 o
329.245 141.953 o
341.732 159.497 o
354.219 180.098 o
366.705 205.13 o
379.192 233.323 o
391.679 270.312 o
404.165 311.436 o
grestore
0.800 setlinewidth
0 setlinejoin
2 setlinecap
[] 0 setdash
0.000 setgray
gsave
63.278125 61.750463 m
63.278125 327.862463 l
stroke
grestore
gsave
420.398125 61.750463 m
420.398125 327.862463 l
stroke
grestore
gsave
63.278125 61.750463 m
420.398125 61.750463 l
stroke
grestore
gsave
63.278125 327.862463 m
420.398125 327.862463 l
stroke
grestore
1.000 setlinewidth
0 setlinecap
0.800 setgray
gsave
73.778125 271.831213 m
356.684375 271.831213 l
358.684375 271.831213 359.684375 272.831213 359.684375 274.831213 c
359.684375 317.362463 l
359.684375 319.362463 358.684375 320.362463 356.684375 320.362463 c
73.778125 320.362463 l
71.778125 320.362463 70.778125 319.362463 70.778125 317.362463 c
70.778125 274.831213 l
70.778125 272.831213 71.778125 271.831213 73.778125 271.831213 c
cl
gsave
1.000 setgray
fill
grestore
stroke
grestore
1.500 setlinewidth
1 setlinejoin
2 setlinecap
[] 0 setdash
1.000 0.647 0.000 setrgbcolor
gsave
76.778125 308.221838 m
106.778125 308.221838 l
stroke
grestore
0.000 setgray
gsave
118.778125 302.971838 translate
0.000000 rotate
/DejaVuSans-Oblique findfont
15.0 scalefont
setfont
0.000000 0.515625 moveto
/F glyphshow

/DejaVuSans findfont
15.0 scalefont
setfont
8.627930 0.515625 moveto
/parenleft glyphshow

/DejaVuSans-Oblique findfont
15.0 scalefont
setfont
14.479980 0.515625 moveto
/x glyphshow

/DejaVuSans findfont
15.0 scalefont
setfont
23.356934 0.515625 moveto
/parenright glyphshow

32.131348 0.515625 moveto
/equal glyphshow

47.622070 0.515625 moveto
/five glyphshow

57.165527 0.515625 moveto
/period glyphshow

61.933594 0.515625 moveto
/three glyphshow

74.399414 0.515625 moveto
/asterisk glyphshow

84.821777 0.515625 moveto
/one glyphshow

94.365234 0.515625 moveto
/period glyphshow

99.133301 0.515625 moveto
/zero glyphshow

108.676758 0.515625 moveto
/zero glyphshow

118.220215 0.515625 moveto
/five glyphshow

127.763672 0.515625 moveto
/three glyphshow

/DejaVuSans-Oblique findfont
10.5 scalefont
setfont
137.450684 6.257812 moveto
/x glyphshow

/DejaVuSans findfont
15.0 scalefont
setfont
146.997070 0.515625 moveto
/minus glyphshow

162.487793 0.515625 moveto
/two glyphshow

172.031250 0.515625 moveto
/four glyphshow

181.574707 0.515625 moveto
/period glyphshow

186.342773 0.515625 moveto
/three glyphshow


grestore
1.000 setlinewidth
0 setlinecap
0.000 0.000 1.000 setrgbcolor
gsave
/o {
gsave
newpath
translate
1.0 setlinewidth
1 setlinejoin
0 setlinecap
0 -1.25 m
0.331504 -1.25 0.649475 -1.118292 0.883883 -0.883883 c
1.118292 -0.649475 1.25 -0.331504 1.25 0 c
1.25 0.331504 1.118292 0.649475 0.883883 0.883883 c
0.649475 1.118292 0.331504 1.25 0 1.25 c
-0.331504 1.25 -0.649475 1.118292 -0.883883 0.883883 c
-1.118292 0.649475 -1.25 0.331504 -1.25 0 c
-1.25 -0.331504 -1.118292 -0.649475 -0.883883 -0.883883 c
-0.649475 -1.118292 -0.331504 -1.25 0 -1.25 c
cl

gsave
0.000 0.000 1.000 setrgbcolor
fill
grestore
stroke
grestore
} bind def
91.7781 286.206 o
grestore
0.000 setgray
gsave
118.778125 280.956213 translate
0.000000 rotate
0.000000 0.000000 m /T glyphshow
9.162598 0.000000 m /i glyphshow
13.330078 0.000000 m /m glyphshow
27.941895 0.000000 m /e glyphshow
37.170410 0.000000 m /space glyphshow
41.938477 0.000000 m /w glyphshow
54.206543 0.000000 m /i glyphshow
58.374023 0.000000 m /t glyphshow
64.255371 0.000000 m /h glyphshow
73.762207 0.000000 m /space glyphshow
78.530273 0.000000 m /k glyphshow
87.216797 0.000000 m /equal glyphshow
99.785156 0.000000 m /one glyphshow
109.328613 0.000000 m /zero glyphshow
118.872070 0.000000 m /comma glyphshow
123.640137 0.000000 m /space glyphshow
128.408203 0.000000 m /n glyphshow
137.915039 0.000000 m /equal glyphshow
150.483398 0.000000 m /one glyphshow
160.026855 0.000000 m /comma glyphshow
164.794922 0.000000 m /space glyphshow
169.562988 0.000000 m /m glyphshow
184.174805 0.000000 m /equal glyphshow
196.743164 0.000000 m /one glyphshow
206.286621 0.000000 m /period glyphshow
211.054688 0.000000 m /period glyphshow
215.822754 0.000000 m /two glyphshow
225.366211 0.000000 m /six glyphshow
grestore

end
showpage
