1,2,1,9,8,0.015895922978719074,0.0076982975006103516,0.007773160934448242,0.03221631050109863
2,2,1,46,60,0.053812503814697266,0.032549142837524414,0.06463766098022461,0.06425070762634277
3,2,1,161,240,0.13151017824808756,0.16518139839172363,0.11487269401550293,0.11447644233703613
4,2,1,426,680,0.38207419713338214,0.41561341285705566,0.3652682304382324,0.3653409481048584
5,2,1,937,1560,1.5334209601084392,1.5166480541229248,1.4663639068603516,1.617250919342041
6,2,1,1814,3108,6.993368943532308,7.225720405578613,7.078625679016113,6.675760746002197
7,2,1,3201,5600,23.62092924118042,24.70441484451294,22.852426528930664,23.305946350097656
8,2,1,5266,9360,72.58731301625569,72.98921346664429,72.33600664138794,72.43671894073486
9,2,1,8201,14760,203.87036418914795,205.62586069107056,202.6707410812378,203.3144907951355
10,2,1,12222,22220,1014.7662092049917,1017.9784872531891,1011.8097515106201,1014.5103888511658
