-- From http://cs.uccs.edu/~cs522/pe/pe.htm

.outputs 
.state graph
q1 1 ! d0 q3
q3 1 ? a1 q7
q7 1 ! d0 q3
q3 1 ? a0 q4
q4 1 ! d1 q6
q6 1 ? a0 q8
q8 1 ! d1 q6
q6 1 ? a1 q1
.marking q1
.end

.outputs 
.state graph
q1 0 ? d1 q8
q9 0 ! a1 q1
q1 0 ? d0 q2
q2 0 ! a0 q4
q4 0 ? d0 q7
q7 0 ! a0 q4
q4 0 ? d1 q6
q6 0 ! a1 q1
.marking q1
.end



