%!PS-Adobe-3.0 EPSF-3.0
%%Title: ./plots/parametrised-benchmarks-X-1-2-Y-2-101-P-5-6-False.csvplot-c.eps
%%Creator: matplotlib version 1.5.1, http://matplotlib.org/
%%CreationDate: Wed Apr 24 12:01:55 2019
%%Orientation: portrait
%%BoundingBox: 48 186 563 605
%%EndComments
%%BeginProlog
/mpldict 11 dict def
mpldict begin
/m { moveto } bind def
/l { lineto } bind def
/r { rlineto } bind def
/c { curveto } bind def
/cl { closepath } bind def
/box {
m
1 index 0 r
0 exch r
neg 0 r
cl
} bind def
/clipbox {
box
clip
newpath
} bind def
%!PS-Adobe-3.0 Resource-Font
%%Title: Bitstream Vera Sans
%%Copyright: Copyright (c) 2003 by Bitstream, Inc. All Rights Reserved.
%%Creator: Converted from TrueType to type 3 by PPR
25 dict begin
/_d{bind def}bind def
/_m{moveto}_d
/_l{lineto}_d
/_cl{closepath eofill}_d
/_c{curveto}_d
/_sc{7 -1 roll{setcachedevice}{pop pop pop pop pop pop}ifelse}_d
/_e{exec}_d
/FontName /BitstreamVeraSans-Roman def
/PaintType 0 def
/FontMatrix[.001 0 0 .001 0 0]def
/FontBBox[-183 -236 1287 928]def
/FontType 3 def
/Encoding [ /space /parenleft /parenright /comma /period /zero /one /two /four /five /six /eight /equal /N /T /a /b /c /d /e /f /h /i /k /m /n /o /r /s /t /u /w ] def
/FontInfo 10 dict dup begin
/FamilyName (Bitstream Vera Sans) def
/FullName (Bitstream Vera Sans) def
/Notice (Copyright (c) 2003 by Bitstream, Inc. All Rights Reserved. Bitstream Vera is a trademark of Bitstream, Inc.) def
/Weight (Roman) def
/Version (Release 1.10) def
/ItalicAngle 0.0 def
/isFixedPitch false def
/UnderlinePosition -213 def
/UnderlineThickness 143 def
end readonly def
/CharStrings 32 dict dup begin
/space{318 0 0 0 0 0 _sc
}_d
/parenleft{390 0 86 -131 310 759 _sc
310 759 _m
266 683 234 609 213 536 _c
191 463 181 389 181 314 _c
181 238 191 164 213 91 _c
234 17 266 -56 310 -131 _c
232 -131 _l
183 -54 146 20 122 94 _c
98 168 86 241 86 314 _c
86 386 98 459 122 533 _c
146 607 182 682 232 759 _c
310 759 _l
_cl}_d
/parenright{390 0 80 -131 304 759 _sc
80 759 _m
158 759 _l
206 682 243 607 267 533 _c
291 459 304 386 304 314 _c
304 241 291 168 267 94 _c
243 20 206 -54 158 -131 _c
80 -131 _l
123 -56 155 17 177 91 _c
198 164 209 238 209 314 _c
209 389 198 463 177 536 _c
155 609 123 683 80 759 _c
_cl}_d
/comma{318 0 77 -115 220 124 _sc
117 124 _m
220 124 _l
220 40 _l
140 -115 _l
77 -115 _l
117 40 _l
117 124 _l
_cl}_d
/period{318 0 107 0 210 124 _sc
107 124 _m
210 124 _l
210 0 _l
107 0 _l
107 124 _l
_cl}_d
/zero{636 0 66 -13 570 742 _sc
318 664 _m
267 664 229 639 203 589 _c
177 539 165 464 165 364 _c
165 264 177 189 203 139 _c
229 89 267 64 318 64 _c
369 64 407 89 433 139 _c
458 189 471 264 471 364 _c
471 464 458 539 433 589 _c
407 639 369 664 318 664 _c
318 742 _m
399 742 461 709 505 645 _c
548 580 570 486 570 364 _c
570 241 548 147 505 83 _c
461 19 399 -13 318 -13 _c
236 -13 173 19 130 83 _c
87 147 66 241 66 364 _c
66 486 87 580 130 645 _c
173 709 236 742 318 742 _c
_cl}_d
/one{636 0 110 0 544 729 _sc
124 83 _m
285 83 _l
285 639 _l
110 604 _l
110 694 _l
284 729 _l
383 729 _l
383 83 _l
544 83 _l
544 0 _l
124 0 _l
124 83 _l
_cl}_d
/two{{636 0 73 0 536 742 _sc
192 83 _m
536 83 _l
536 0 _l
73 0 _l
73 83 _l
110 121 161 173 226 239 _c
290 304 331 346 348 365 _c
380 400 402 430 414 455 _c
426 479 433 504 433 528 _c
433 566 419 598 392 622 _c
365 646 330 659 286 659 _c
255 659 222 653 188 643 _c
154 632 117 616 78 594 _c
78 694 _l
118 710 155 722 189 730 _c
223 738 255 742 284 742 _c
}_e{359 742 419 723 464 685 _c
509 647 532 597 532 534 _c
532 504 526 475 515 449 _c
504 422 484 390 454 354 _c
446 344 420 317 376 272 _c
332 227 271 164 192 83 _c
_cl}_e}_d
/four{636 0 49 0 580 729 _sc
378 643 _m
129 254 _l
378 254 _l
378 643 _l
352 729 _m
476 729 _l
476 254 _l
580 254 _l
580 172 _l
476 172 _l
476 0 _l
378 0 _l
378 172 _l
49 172 _l
49 267 _l
352 729 _l
_cl}_d
/five{{636 0 77 -13 549 729 _sc
108 729 _m
495 729 _l
495 646 _l
198 646 _l
198 467 _l
212 472 227 476 241 478 _c
255 480 270 482 284 482 _c
365 482 429 459 477 415 _c
525 370 549 310 549 234 _c
549 155 524 94 475 51 _c
426 8 357 -13 269 -13 _c
238 -13 207 -10 175 -6 _c
143 -1 111 6 77 17 _c
77 116 _l
106 100 136 88 168 80 _c
199 72 232 69 267 69 _c
}_e{323 69 368 83 401 113 _c
433 143 450 183 450 234 _c
450 284 433 324 401 354 _c
368 384 323 399 267 399 _c
241 399 214 396 188 390 _c
162 384 135 375 108 363 _c
108 729 _l
_cl}_e}_d
/six{{636 0 70 -13 573 742 _sc
330 404 _m
286 404 251 388 225 358 _c
199 328 186 286 186 234 _c
186 181 199 139 225 109 _c
251 79 286 64 330 64 _c
374 64 409 79 435 109 _c
461 139 474 181 474 234 _c
474 286 461 328 435 358 _c
409 388 374 404 330 404 _c
526 713 _m
526 623 _l
501 635 476 644 451 650 _c
425 656 400 659 376 659 _c
310 659 260 637 226 593 _c
}_e{192 549 172 482 168 394 _c
187 422 211 444 240 459 _c
269 474 301 482 336 482 _c
409 482 467 459 509 415 _c
551 371 573 310 573 234 _c
573 159 550 99 506 54 _c
462 9 403 -13 330 -13 _c
246 -13 181 19 137 83 _c
92 147 70 241 70 364 _c
70 479 97 571 152 639 _c
206 707 280 742 372 742 _c
396 742 421 739 447 735 _c
472 730 498 723 526 713 _c
_cl}_e}_d
/eight{{636 0 68 -13 568 742 _sc
318 346 _m
271 346 234 333 207 308 _c
180 283 167 249 167 205 _c
167 161 180 126 207 101 _c
234 76 271 64 318 64 _c
364 64 401 76 428 102 _c
455 127 469 161 469 205 _c
469 249 455 283 429 308 _c
402 333 365 346 318 346 _c
219 388 _m
177 398 144 418 120 447 _c
96 476 85 511 85 553 _c
85 611 105 657 147 691 _c
188 725 245 742 318 742 _c
}_e{390 742 447 725 489 691 _c
530 657 551 611 551 553 _c
551 511 539 476 515 447 _c
491 418 459 398 417 388 _c
464 377 501 355 528 323 _c
554 291 568 251 568 205 _c
568 134 546 80 503 43 _c
459 5 398 -13 318 -13 _c
237 -13 175 5 132 43 _c
89 80 68 134 68 205 _c
68 251 81 291 108 323 _c
134 355 171 377 219 388 _c
183 544 _m
183 506 194 476 218 455 _c
}_e{242 434 275 424 318 424 _c
360 424 393 434 417 455 _c
441 476 453 506 453 544 _c
453 582 441 611 417 632 _c
393 653 360 664 318 664 _c
275 664 242 653 218 632 _c
194 611 183 582 183 544 _c
_cl}_e}_d
/equal{838 0 106 172 732 454 _sc
106 454 _m
732 454 _l
732 372 _l
106 372 _l
106 454 _l
106 255 _m
732 255 _l
732 172 _l
106 172 _l
106 255 _l
_cl}_d
/N{748 0 98 0 650 729 _sc
98 729 _m
231 729 _l
554 119 _l
554 729 _l
650 729 _l
650 0 _l
517 0 _l
194 610 _l
194 0 _l
98 0 _l
98 729 _l
_cl}_d
/T{611 0 -2 0 614 729 _sc
-2 729 _m
614 729 _l
614 646 _l
355 646 _l
355 0 _l
256 0 _l
256 646 _l
-2 646 _l
-2 729 _l
_cl}_d
/a{{613 0 60 -13 522 560 _sc
343 275 _m
270 275 220 266 192 250 _c
164 233 150 205 150 165 _c
150 133 160 107 181 89 _c
202 70 231 61 267 61 _c
317 61 357 78 387 114 _c
417 149 432 196 432 255 _c
432 275 _l
343 275 _l
522 312 _m
522 0 _l
432 0 _l
432 83 _l
411 49 385 25 355 10 _c
325 -5 287 -13 243 -13 _c
187 -13 142 2 109 33 _c
76 64 60 106 60 159 _c
}_e{60 220 80 266 122 298 _c
163 329 224 345 306 345 _c
432 345 _l
432 354 _l
432 395 418 427 391 450 _c
364 472 326 484 277 484 _c
245 484 215 480 185 472 _c
155 464 127 453 100 439 _c
100 522 _l
132 534 164 544 195 550 _c
226 556 256 560 286 560 _c
365 560 424 539 463 498 _c
502 457 522 395 522 312 _c
_cl}_e}_d
/b{{635 0 91 -13 580 760 _sc
487 273 _m
487 339 473 390 446 428 _c
418 466 381 485 334 485 _c
286 485 249 466 222 428 _c
194 390 181 339 181 273 _c
181 207 194 155 222 117 _c
249 79 286 61 334 61 _c
381 61 418 79 446 117 _c
473 155 487 207 487 273 _c
181 464 _m
199 496 223 520 252 536 _c
281 552 316 560 356 560 _c
422 560 476 533 518 481 _c
559 428 580 359 580 273 _c
}_e{580 187 559 117 518 65 _c
476 13 422 -13 356 -13 _c
316 -13 281 -5 252 10 _c
223 25 199 49 181 82 _c
181 0 _l
91 0 _l
91 760 _l
181 760 _l
181 464 _l
_cl}_e}_d
/c{{550 0 55 -13 488 560 _sc
488 526 _m
488 442 _l
462 456 437 466 411 473 _c
385 480 360 484 334 484 _c
276 484 230 465 198 428 _c
166 391 150 339 150 273 _c
150 206 166 154 198 117 _c
230 80 276 62 334 62 _c
360 62 385 65 411 72 _c
437 79 462 90 488 104 _c
488 21 _l
462 9 436 0 410 -5 _c
383 -10 354 -13 324 -13 _c
242 -13 176 12 128 64 _c
}_e{79 115 55 185 55 273 _c
55 362 79 432 128 483 _c
177 534 244 560 330 560 _c
358 560 385 557 411 551 _c
437 545 463 537 488 526 _c
_cl}_e}_d
/d{{635 0 55 -13 544 760 _sc
454 464 _m
454 760 _l
544 760 _l
544 0 _l
454 0 _l
454 82 _l
435 49 411 25 382 10 _c
353 -5 319 -13 279 -13 _c
213 -13 159 13 117 65 _c
75 117 55 187 55 273 _c
55 359 75 428 117 481 _c
159 533 213 560 279 560 _c
319 560 353 552 382 536 _c
411 520 435 496 454 464 _c
148 273 _m
148 207 161 155 188 117 _c
215 79 253 61 301 61 _c
}_e{348 61 385 79 413 117 _c
440 155 454 207 454 273 _c
454 339 440 390 413 428 _c
385 466 348 485 301 485 _c
253 485 215 466 188 428 _c
161 390 148 339 148 273 _c
_cl}_e}_d
/e{{615 0 55 -13 562 560 _sc
562 296 _m
562 252 _l
149 252 _l
153 190 171 142 205 110 _c
238 78 284 62 344 62 _c
378 62 412 66 444 74 _c
476 82 509 95 541 113 _c
541 28 _l
509 14 476 3 442 -3 _c
408 -9 373 -13 339 -13 _c
251 -13 182 12 131 62 _c
80 112 55 181 55 268 _c
55 357 79 428 127 481 _c
175 533 241 560 323 560 _c
397 560 455 536 498 489 _c
}_e{540 441 562 377 562 296 _c
472 322 _m
471 371 457 410 431 440 _c
404 469 368 484 324 484 _c
274 484 234 469 204 441 _c
174 413 156 373 152 322 _c
472 322 _l
_cl}_e}_d
/f{352 0 23 0 371 760 _sc
371 760 _m
371 685 _l
285 685 _l
253 685 230 678 218 665 _c
205 652 199 629 199 595 _c
199 547 _l
347 547 _l
347 477 _l
199 477 _l
199 0 _l
109 0 _l
109 477 _l
23 477 _l
23 547 _l
109 547 _l
109 585 _l
109 645 123 690 151 718 _c
179 746 224 760 286 760 _c
371 760 _l
_cl}_d
/h{634 0 91 0 549 760 _sc
549 330 _m
549 0 _l
459 0 _l
459 327 _l
459 379 448 417 428 443 _c
408 469 378 482 338 482 _c
289 482 251 466 223 435 _c
195 404 181 362 181 309 _c
181 0 _l
91 0 _l
91 760 _l
181 760 _l
181 462 _l
202 494 227 519 257 535 _c
286 551 320 560 358 560 _c
420 560 468 540 500 501 _c
532 462 549 405 549 330 _c
_cl}_d
/i{278 0 94 0 184 760 _sc
94 547 _m
184 547 _l
184 0 _l
94 0 _l
94 547 _l
94 760 _m
184 760 _l
184 646 _l
94 646 _l
94 760 _l
_cl}_d
/k{579 0 91 0 576 760 _sc
91 760 _m
181 760 _l
181 311 _l
449 547 _l
564 547 _l
274 291 _l
576 0 _l
459 0 _l
181 267 _l
181 0 _l
91 0 _l
91 760 _l
_cl}_d
/m{{974 0 91 0 889 560 _sc
520 442 _m
542 482 569 511 600 531 _c
631 550 668 560 711 560 _c
767 560 811 540 842 500 _c
873 460 889 403 889 330 _c
889 0 _l
799 0 _l
799 327 _l
799 379 789 418 771 444 _c
752 469 724 482 686 482 _c
639 482 602 466 575 435 _c
548 404 535 362 535 309 _c
535 0 _l
445 0 _l
445 327 _l
445 379 435 418 417 444 _c
398 469 369 482 331 482 _c
}_e{285 482 248 466 221 435 _c
194 404 181 362 181 309 _c
181 0 _l
91 0 _l
91 547 _l
181 547 _l
181 462 _l
201 495 226 520 255 536 _c
283 552 317 560 357 560 _c
397 560 430 550 458 530 _c
486 510 506 480 520 442 _c
_cl}_e}_d
/n{634 0 91 0 549 560 _sc
549 330 _m
549 0 _l
459 0 _l
459 327 _l
459 379 448 417 428 443 _c
408 469 378 482 338 482 _c
289 482 251 466 223 435 _c
195 404 181 362 181 309 _c
181 0 _l
91 0 _l
91 547 _l
181 547 _l
181 462 _l
202 494 227 519 257 535 _c
286 551 320 560 358 560 _c
420 560 468 540 500 501 _c
532 462 549 405 549 330 _c
_cl}_d
/o{612 0 55 -13 557 560 _sc
306 484 _m
258 484 220 465 192 427 _c
164 389 150 338 150 273 _c
150 207 163 156 191 118 _c
219 80 257 62 306 62 _c
354 62 392 80 420 118 _c
448 156 462 207 462 273 _c
462 337 448 389 420 427 _c
392 465 354 484 306 484 _c
306 560 _m
384 560 445 534 490 484 _c
534 433 557 363 557 273 _c
557 183 534 113 490 63 _c
445 12 384 -13 306 -13 _c
227 -13 165 12 121 63 _c
77 113 55 183 55 273 _c
55 363 77 433 121 484 _c
165 534 227 560 306 560 _c
_cl}_d
/r{411 0 91 0 411 560 _sc
411 463 _m
401 469 390 473 378 476 _c
366 478 353 480 339 480 _c
288 480 249 463 222 430 _c
194 397 181 350 181 288 _c
181 0 _l
91 0 _l
91 547 _l
181 547 _l
181 462 _l
199 495 224 520 254 536 _c
284 552 321 560 365 560 _c
371 560 378 559 386 559 _c
393 558 401 557 411 555 _c
411 463 _l
_cl}_d
/s{{521 0 54 -13 472 560 _sc
443 531 _m
443 446 _l
417 458 391 468 364 475 _c
336 481 308 485 279 485 _c
234 485 200 478 178 464 _c
156 450 145 430 145 403 _c
145 382 153 366 169 354 _c
185 342 217 330 265 320 _c
296 313 _l
360 299 405 279 432 255 _c
458 230 472 195 472 151 _c
472 100 452 60 412 31 _c
372 1 316 -13 246 -13 _c
216 -13 186 -10 154 -5 _c
}_e{122 0 89 8 54 20 _c
54 113 _l
87 95 120 82 152 74 _c
184 65 216 61 248 61 _c
290 61 323 68 346 82 _c
368 96 380 117 380 144 _c
380 168 371 187 355 200 _c
339 213 303 226 247 238 _c
216 245 _l
160 257 119 275 95 299 _c
70 323 58 356 58 399 _c
58 450 76 490 112 518 _c
148 546 200 560 268 560 _c
301 560 332 557 362 552 _c
391 547 418 540 443 531 _c
}_e{_cl}_e}_d
/t{392 0 27 0 368 702 _sc
183 702 _m
183 547 _l
368 547 _l
368 477 _l
183 477 _l
183 180 _l
183 135 189 106 201 94 _c
213 81 238 75 276 75 _c
368 75 _l
368 0 _l
276 0 _l
206 0 158 13 132 39 _c
106 65 93 112 93 180 _c
93 477 _l
27 477 _l
27 547 _l
93 547 _l
93 702 _l
183 702 _l
_cl}_d
/u{634 0 85 -13 543 547 _sc
85 216 _m
85 547 _l
175 547 _l
175 219 _l
175 167 185 129 205 103 _c
225 77 255 64 296 64 _c
344 64 383 79 411 110 _c
439 141 453 183 453 237 _c
453 547 _l
543 547 _l
543 0 _l
453 0 _l
453 84 _l
431 50 405 26 377 10 _c
348 -5 315 -13 277 -13 _c
214 -13 166 6 134 45 _c
101 83 85 140 85 216 _c
_cl}_d
/w{818 0 42 0 776 547 _sc
42 547 _m
132 547 _l
244 120 _l
356 547 _l
462 547 _l
574 120 _l
686 547 _l
776 547 _l
633 0 _l
527 0 _l
409 448 _l
291 0 _l
185 0 _l
42 547 _l
_cl}_d
end readonly def

/BuildGlyph
 {exch begin
 CharStrings exch
 2 copy known not{pop /.notdef}if
 true 3 1 roll get exec
 end}_d

/BuildChar {
 1 index /Encoding get exch get
 1 index /BuildGlyph get exec
}_d

FontName currentdict end definefont pop
%!PS-Adobe-3.0 Resource-Font
%%Title: cmmi10
%%Copyright: Copyright (C) 1994, Basil K. Malyshev. All Rights Reserved.012BaKoMa Fonts Collection, Level-B.
%%Creator: Converted from TrueType to type 3 by PPR
25 dict begin
/_d{bind def}bind def
/_m{moveto}_d
/_l{lineto}_d
/_cl{closepath eofill}_d
/_c{curveto}_d
/_sc{7 -1 roll{setcachedevice}{pop pop pop pop pop pop}ifelse}_d
/_e{exec}_d
/FontName /Cmmi10 def
/PaintType 0 def
/FontMatrix[.001 0 0 .001 0 0]def
/FontBBox[-34 -250 1048 750]def
/FontType 3 def
/Encoding [ /period /k /x /F /S /R /T ] def
/FontInfo 10 dict dup begin
/FamilyName (cmmi10) def
/FullName (cmmi10) def
/Notice (Copyright (C) 1994, Basil K. Malyshev. All Rights Reserved.012BaKoMa Fonts Collection, Level-B. ) def
/Weight (Regular) def
/Version (1.1/12-Nov-94) def
/ItalicAngle 0.0 def
/isFixedPitch false def
/UnderlinePosition -133 def
/UnderlineThickness 20 def
end readonly def
/CharStrings 7 dict dup begin
/period{277 0 84 0 194 110 _sc
84 55 _m
84 70 89 83 100 94 _c
111 104 124 110 139 110 _c
148 110 157 107 166 102 _c
174 97 181 90 186 82 _c
191 73 194 64 194 55 _c
194 40 188 27 178 16 _c
167 5 154 0 139 0 _c
124 0 111 5 100 16 _c
89 27 84 40 84 55 _c
_cl}_d
/k{{520 0 53 -10 507 694 _sc
53 18 _m
53 22 53 25 54 27 _c
199 605 _l
201 616 203 625 204 632 _c
204 642 182 648 139 648 _c
132 648 129 652 129 661 _c
129 663 129 666 131 670 _c
132 674 133 677 135 679 _c
137 681 139 683 143 683 _c
278 694 _l
281 694 _l
281 693 282 692 284 691 _c
286 689 288 689 288 689 _c
289 685 290 683 290 681 _c
185 263 _l
209 273 239 297 276 335 _c
}_e{312 373 341 400 362 417 _c
382 433 408 442 440 442 _c
458 442 474 435 487 423 _c
500 410 507 394 507 376 _c
507 364 504 353 499 343 _c
494 333 487 325 479 319 _c
470 313 460 310 448 310 _c
437 310 428 313 421 320 _c
413 326 410 335 410 346 _c
410 362 415 375 427 386 _c
438 397 452 403 468 403 _c
461 411 451 416 438 416 _c
418 416 398 410 380 399 _c
}_e{362 387 342 371 321 350 _c
299 328 280 309 262 291 _c
244 273 228 260 214 251 _c
253 246 287 236 316 220 _c
345 204 360 179 360 146 _c
360 139 358 130 356 120 _c
350 95 347 75 347 60 _c
347 30 357 15 378 15 _c
402 15 420 28 433 54 _c
445 80 456 111 464 147 _c
465 151 468 153 472 153 _c
484 153 _l
486 153 488 152 490 150 _c
492 148 493 146 493 144 _c
}_e{493 143 492 142 492 141 _c
467 40 428 -10 376 -10 _c
357 -10 340 -6 326 2 _c
311 10 300 22 292 38 _c
284 53 281 70 281 89 _c
281 99 282 110 285 122 _c
287 130 288 137 288 144 _c
288 170 276 189 254 203 _c
231 216 205 224 176 227 _c
125 23 _l
122 13 117 5 110 -1 _c
102 -7 94 -10 84 -10 _c
75 -10 68 -7 62 -2 _c
56 3 53 10 53 18 _c
_cl}_e}_d
/x{{571 0 31 -10 526 442 _sc
78 29 _m
90 19 106 15 128 15 _c
148 15 167 25 183 45 _c
199 65 210 87 216 111 _c
261 288 _l
268 320 272 342 272 354 _c
272 370 267 385 258 397 _c
248 409 235 416 219 416 _c
198 416 178 409 160 396 _c
141 382 125 365 113 345 _c
100 325 91 304 86 284 _c
84 280 82 278 78 278 _c
66 278 _l
60 278 58 281 58 287 _c
58 290 _l
}_e{64 314 75 338 91 362 _c
107 386 126 405 149 420 _c
171 434 195 442 221 442 _c
245 442 267 435 287 422 _c
307 409 321 391 329 369 _c
340 389 354 407 372 421 _c
390 435 409 442 431 442 _c
445 442 460 439 475 434 _c
490 429 502 421 512 411 _c
521 401 526 388 526 372 _c
526 355 520 340 509 328 _c
498 316 484 310 468 310 _c
457 310 448 313 441 320 _c
}_e{433 327 430 336 430 346 _c
430 360 434 372 444 383 _c
454 393 465 400 479 402 _c
467 411 450 416 429 416 _c
407 416 389 406 373 386 _c
357 366 346 344 340 320 _c
296 143 _l
288 116 285 94 285 77 _c
285 60 289 45 299 33 _c
309 21 322 15 338 15 _c
369 15 397 28 421 56 _c
445 84 462 114 470 147 _c
471 151 474 153 478 153 _c
490 153 _l
492 153 494 152 496 150 _c
}_e{498 148 499 146 499 144 _c
499 143 498 142 498 141 _c
488 101 468 66 438 36 _c
408 5 374 -10 336 -10 _c
311 -10 289 -3 269 9 _c
249 21 236 39 228 62 _c
217 42 202 25 184 11 _c
166 -3 146 -10 126 -10 _c
111 -10 96 -7 81 -3 _c
66 1 54 9 45 19 _c
35 29 31 43 31 59 _c
31 75 36 89 47 102 _c
57 114 71 121 88 121 _c
}_e{98 121 107 117 115 111 _c
123 104 127 95 127 85 _c
127 71 122 58 113 48 _c
103 38 92 31 78 29 _c
_cl}_e}_d
/F{{643 0 37 0 750 683 _sc
47 0 _m
40 0 37 4 37 13 _c
37 15 38 18 39 22 _c
40 26 41 29 43 31 _c
45 33 47 35 50 35 _c
90 35 119 37 135 42 _c
143 44 150 53 154 69 _c
291 618 _l
292 624 293 629 293 632 _c
293 639 289 643 281 644 _c
268 646 244 648 209 648 _c
202 648 199 652 199 661 _c
199 663 200 666 201 670 _c
202 674 203 677 205 679 _c
}_e{207 681 209 683 212 683 _c
740 683 _l
746 683 750 678 750 670 _c
726 463 _l
726 461 724 459 722 457 _c
720 455 718 454 716 454 _c
707 454 _l
700 454 697 458 697 467 _c
701 497 703 521 703 541 _c
703 574 695 598 681 614 _c
667 630 649 639 627 643 _c
605 646 575 648 537 648 _c
430 648 _l
412 648 400 646 394 643 _c
388 640 382 630 378 614 _c
314 359 _l
389 359 _l
}_e{413 359 433 360 449 363 _c
464 365 477 370 487 378 _c
497 385 505 396 512 410 _c
518 424 525 443 531 467 _c
533 473 536 476 541 476 _c
550 476 _l
556 476 560 471 560 463 _c
499 216 _l
496 210 493 207 489 207 _c
480 207 _l
473 207 470 211 470 220 _c
472 226 473 232 474 237 _c
475 241 476 248 478 257 _c
479 265 480 273 480 280 _c
480 299 471 311 454 316 _c
}_e{437 321 415 324 388 324 _c
306 324 _l
241 65 _l
239 58 239 55 239 55 _c
239 47 241 42 246 42 _c
263 37 297 35 348 35 _c
354 35 358 30 358 22 _c
355 12 353 6 352 4 _c
351 1 347 0 341 0 _c
47 0 _l
_cl}_e}_d
/S{{613 0 53 -21 646 705 _sc
61 -21 _m
59 -21 57 -19 55 -17 _c
53 -15 53 -13 53 -11 _c
111 221 _l
112 225 115 227 119 227 _c
131 227 _l
133 227 135 226 137 224 _c
138 222 139 219 139 217 _c
133 194 131 174 131 156 _c
131 107 147 71 180 48 _c
213 24 255 13 306 13 _c
328 13 349 18 370 29 _c
391 39 410 53 426 71 _c
442 88 454 107 464 129 _c
}_e{473 150 478 172 478 194 _c
478 217 471 238 459 256 _c
447 274 430 286 408 292 _c
286 324 _l
253 332 227 350 207 377 _c
187 403 178 433 178 467 _c
178 507 190 545 214 582 _c
238 619 269 649 307 671 _c
345 693 384 705 424 705 _c
454 705 482 699 508 688 _c
533 676 553 659 567 635 _c
624 702 _l
628 704 630 705 631 705 _c
637 705 _l
639 705 641 703 643 701 _c
}_e{645 699 646 697 646 695 _c
588 463 _l
586 458 584 456 580 456 _c
568 456 _l
562 456 559 459 559 467 _c
562 488 564 506 564 522 _c
564 552 558 579 548 602 _c
537 625 521 643 500 655 _c
478 667 452 673 421 673 _c
394 673 367 665 341 650 _c
315 634 293 614 277 589 _c
261 563 253 537 253 510 _c
253 488 259 469 272 453 _c
284 436 301 425 322 419 _c
444 387 _l
}_e{466 381 485 370 501 356 _c
517 341 530 323 539 303 _c
547 283 552 261 552 237 _c
552 205 545 173 532 143 _c
518 112 500 84 476 59 _c
452 33 424 14 394 0 _c
364 -14 333 -21 302 -21 _c
222 -21 165 2 131 48 _c
75 -18 _l
71 -20 68 -21 68 -21 _c
61 -21 _l
_cl}_e}_d
/R{{759 0 39 -21 755 683 _sc
49 0 _m
42 0 39 4 39 13 _c
39 15 40 18 41 22 _c
41 26 43 29 45 31 _c
47 33 49 35 52 35 _c
92 35 121 37 137 42 _c
145 44 152 53 156 69 _c
293 618 _l
294 624 295 629 295 632 _c
295 639 291 643 283 644 _c
270 646 246 648 211 648 _c
204 648 201 652 201 661 _c
201 663 202 666 203 670 _c
204 674 205 677 207 679 _c
}_e{209 681 211 683 214 683 _c
517 683 _l
541 683 566 680 592 675 _c
618 669 642 661 664 649 _c
686 637 704 621 718 601 _c
732 581 739 558 739 532 _c
739 498 727 468 705 442 _c
683 416 655 394 621 376 _c
587 358 555 346 523 339 _c
549 329 570 314 587 294 _c
603 273 612 249 612 222 _c
612 218 611 216 611 214 _c
611 212 611 210 611 208 _c
603 119 _l
602 106 601 95 601 86 _c
}_e{600 76 600 69 600 64 _c
600 46 602 31 608 20 _c
613 9 624 4 640 4 _c
660 4 679 13 695 33 _c
711 52 721 73 726 96 _c
728 102 732 105 736 105 _c
745 105 _l
751 105 755 100 755 92 _c
750 72 742 54 732 37 _c
721 19 707 5 691 -5 _c
675 -15 657 -21 639 -21 _c
600 -21 567 -12 539 4 _c
511 21 498 48 498 86 _c
498 100 499 112 502 123 _c
524 212 _l
}_e{526 220 528 229 528 240 _c
528 268 518 289 500 305 _c
481 321 457 329 429 329 _c
306 329 _l
240 65 _l
238 59 238 55 238 51 _c
238 44 242 40 250 39 _c
262 36 286 35 322 35 _c
328 35 332 30 332 22 _c
330 12 328 6 327 4 _c
325 1 321 0 315 0 _c
49 0 _l
312 355 _m
423 355 _l
495 355 550 373 587 410 _c
603 427 617 449 627 475 _c
}_e{637 501 642 527 642 553 _c
642 577 634 597 620 611 _c
606 625 588 634 567 640 _c
545 645 522 648 496 648 _c
429 648 _l
411 648 399 646 393 643 _c
387 640 381 630 377 614 _c
312 355 _l
_cl}_e}_d
/T{{584 0 24 0 706 683 _sc
46 13 _m
46 15 46 18 48 22 _c
49 26 50 29 52 31 _c
54 33 56 35 60 35 _c
117 35 155 36 174 40 _c
192 44 202 54 206 69 _c
343 618 _l
345 626 347 633 347 640 _c
347 645 335 648 312 648 _c
254 648 _l
209 648 174 641 150 627 _c
126 613 108 595 97 573 _c
85 551 71 514 53 463 _c
51 457 47 454 43 454 _c
34 454 _l
}_e{27 454 24 458 24 467 _c
95 674 _l
96 680 99 683 105 683 _c
696 683 _l
702 683 706 678 706 670 _c
673 463 _l
673 461 671 459 669 457 _c
667 455 665 454 663 454 _c
654 454 _l
647 454 644 458 644 467 _c
651 514 655 547 655 567 _c
655 590 650 608 640 620 _c
630 632 617 639 602 643 _c
586 646 566 648 541 648 _c
482 648 _l
464 648 452 646 446 643 _c
}_e{440 639 434 630 430 614 _c
293 65 _l
292 63 292 62 292 61 _c
292 59 291 58 291 56 _c
291 47 296 42 306 40 _c
323 36 360 35 417 35 _c
423 35 427 30 427 22 _c
424 12 422 6 421 4 _c
419 1 416 0 410 0 _c
56 0 _l
49 0 46 4 46 13 _c
_cl}_e}_d
end readonly def

/BuildGlyph
 {exch begin
 CharStrings exch
 2 copy known not{pop /.notdef}if
 true 3 1 roll get exec
 end}_d

/BuildChar {
 1 index /Encoding get exch get
 1 index /BuildGlyph get exec
}_d

FontName currentdict end definefont pop
%!PS-Adobe-3.0 Resource-Font
%%Title: cmr10
%%Copyright: Copyright (C) 1994, Basil K. Malyshev. All Rights Reserved.012BaKoMa Fonts Collection, Level-B.
%%Creator: Converted from TrueType to type 3 by PPR
25 dict begin
/_d{bind def}bind def
/_m{moveto}_d
/_l{lineto}_d
/_cl{closepath eofill}_d
/_c{curveto}_d
/_sc{7 -1 roll{setcachedevice}{pop pop pop pop pop pop}ifelse}_d
/_e{exec}_d
/FontName /Cmr10 def
/PaintType 0 def
/FontMatrix[.001 0 0 .001 0 0]def
/FontBBox[-44 -250 1009 750]def
/FontType 3 def
/Encoding [ /zero /equal /two /parenright /one /three /parenleft ] def
/FontInfo 10 dict dup begin
/FamilyName (cmr10) def
/FullName (cmr10) def
/Notice (Copyright (C) 1994, Basil K. Malyshev. All Rights Reserved.012BaKoMa Fonts Collection, Level-B. ) def
/Weight (Regular) def
/Version (1.1/12-Nov-94) def
/ItalicAngle 0.0 def
/isFixedPitch false def
/UnderlinePosition -133 def
/UnderlineThickness 20 def
end readonly def
/CharStrings 7 dict dup begin
/zero{{500 0 39 -21 460 666 _sc
250 -21 _m
168 -21 112 12 83 79 _c
53 146 39 226 39 319 _c
39 377 44 431 55 482 _c
65 533 86 576 118 612 _c
149 648 193 666 250 666 _c
294 666 330 655 358 634 _c
386 612 407 585 422 551 _c
436 517 446 480 452 441 _c
457 402 460 361 460 319 _c
460 261 454 208 444 158 _c
433 108 412 65 381 31 _c
350 -3 306 -21 250 -21 _c
250 4 _m
}_e{287 4 315 23 333 61 _c
351 99 362 141 366 187 _c
370 233 373 283 373 335 _c
373 385 370 431 366 473 _c
362 515 351 554 333 588 _c
315 622 287 640 250 640 _c
212 640 184 622 166 588 _c
148 554 136 515 132 473 _c
128 431 126 385 126 335 _c
126 297 126 262 128 230 _c
130 197 135 163 143 128 _c
151 93 163 64 181 40 _c
198 16 221 4 250 4 _c
_cl}_e}_d
/equal{{777 0 56 133 721 367 _sc
75 133 _m
69 133 65 135 61 139 _c
57 143 56 148 56 153 _c
56 158 57 163 61 167 _c
65 171 69 173 75 173 _c
703 173 _l
707 173 711 171 715 167 _c
719 163 721 158 721 153 _c
721 148 719 143 715 139 _c
711 135 707 133 703 133 _c
75 133 _l
75 327 _m
69 327 65 329 61 333 _c
57 337 56 341 56 347 _c
56 351 57 356 61 360 _c
}_e{65 364 69 367 75 367 _c
703 367 _l
707 367 711 364 715 360 _c
719 356 721 351 721 347 _c
721 341 719 337 715 333 _c
711 329 707 327 703 327 _c
75 327 _l
_cl}_e}_d
/two{{500 0 50 0 449 666 _sc
50 0 _m
50 27 _l
50 28 50 30 52 32 _c
207 204 _l
230 229 249 250 264 268 _c
278 285 293 305 307 327 _c
321 349 333 372 341 396 _c
349 419 354 444 354 470 _c
354 497 349 523 339 548 _c
329 573 314 593 294 608 _c
274 623 249 631 221 631 _c
192 631 166 622 143 605 _c
119 587 103 565 94 537 _c
96 537 100 538 105 538 _c
}_e{119 538 132 533 143 523 _c
153 513 159 500 159 484 _c
159 468 153 455 143 445 _c
132 434 119 429 105 429 _c
89 429 76 434 66 445 _c
55 456 50 469 50 484 _c
50 508 54 532 64 554 _c
73 576 86 595 104 613 _c
122 630 142 643 164 652 _c
186 661 210 666 236 666 _c
274 666 309 658 342 642 _c
375 626 401 603 420 573 _c
439 543 449 509 449 470 _c
}_e{449 441 442 414 430 388 _c
417 362 401 338 381 317 _c
361 295 336 271 305 244 _c
274 217 254 199 244 190 _c
131 81 _l
227 81 _l
274 81 313 81 345 82 _c
377 82 394 84 396 86 _c
404 94 412 125 420 178 _c
449 178 _l
421 0 _l
50 0 _l
_cl}_e}_d
/parenright{{388 0 56 -249 291 750 _sc
65 -249 _m
59 -249 56 -246 56 -240 _c
56 -237 56 -235 58 -234 _c
172 -122 229 38 229 250 _c
229 462 172 623 60 733 _c
57 734 56 737 56 741 _c
56 743 57 745 59 747 _c
61 749 63 750 65 750 _c
74 750 _l
76 750 77 749 79 748 _c
127 710 167 664 199 610 _c
231 556 254 498 269 437 _c
283 376 291 314 291 250 _c
291 202 287 156 279 110 _c
}_e{271 64 258 20 241 -24 _c
223 -68 201 -108 175 -146 _c
148 -184 116 -217 79 -247 _c
77 -248 76 -249 74 -249 _c
65 -249 _l
_cl}_e}_d
/one{500 0 87 0 421 666 _sc
93 0 _m
93 35 _l
176 35 218 45 218 67 _c
218 592 _l
183 575 139 567 87 567 _c
87 602 _l
168 602 230 623 272 666 _c
286 666 _l
288 666 291 665 293 663 _c
295 661 296 659 296 657 _c
296 67 _l
296 45 337 35 421 35 _c
421 0 _l
93 0 _l
_cl}_d
/three{{500 0 42 -21 457 666 _sc
95 77 _m
111 54 132 37 158 26 _c
184 15 213 10 243 10 _c
281 10 309 26 325 59 _c
341 92 350 130 350 172 _c
350 190 348 209 345 228 _c
341 247 335 265 327 281 _c
319 297 308 310 294 320 _c
280 330 262 335 242 335 _c
176 335 _l
170 335 167 338 167 344 _c
167 353 _l
167 358 170 361 176 361 _c
231 365 _l
254 365 273 373 289 391 _c
}_e{305 409 316 430 323 456 _c
330 481 334 505 334 528 _c
334 560 326 586 311 606 _c
296 626 273 637 243 637 _c
217 637 193 632 170 622 _c
147 612 129 598 115 579 _c
116 579 117 580 118 580 _c
119 580 120 580 122 580 _c
137 580 150 574 160 564 _c
170 554 175 541 175 527 _c
175 512 170 499 160 489 _c
150 479 137 474 122 474 _c
107 474 94 479 84 489 _c
}_e{74 499 69 512 69 527 _c
69 555 77 580 95 601 _c
112 622 134 638 161 649 _c
188 660 215 666 243 666 _c
263 666 284 663 307 657 _c
329 651 350 642 368 631 _c
386 619 401 605 413 588 _c
424 570 430 550 430 528 _c
430 500 423 474 411 450 _c
399 426 382 406 360 389 _c
338 371 314 358 288 350 _c
317 344 345 333 371 317 _c
397 301 417 280 433 255 _c
}_e{449 229 457 202 457 173 _c
457 136 446 103 426 73 _c
406 43 379 19 347 3 _c
314 -13 279 -21 243 -21 _c
211 -21 180 -15 149 -3 _c
117 8 92 25 72 49 _c
52 73 42 101 42 135 _c
42 151 47 165 58 176 _c
69 187 83 193 100 193 _c
110 193 120 190 129 185 _c
138 180 145 173 150 164 _c
155 154 158 145 158 135 _c
158 118 152 104 141 93 _c
}_e{129 82 116 77 100 77 _c
95 77 _l
_cl}_e}_d
/parenleft{{388 0 97 -249 332 750 _sc
310 -247 _m
272 -217 240 -184 214 -146 _c
187 -108 165 -67 148 -25 _c
131 17 118 62 110 109 _c
101 155 97 202 97 250 _c
97 298 101 345 110 392 _c
118 438 131 483 149 527 _c
166 570 188 611 215 649 _c
242 687 274 720 310 748 _c
310 749 311 750 315 750 _c
324 750 _l
326 750 327 749 329 747 _c
331 745 332 743 332 741 _c
332 738 331 736 330 735 _c
}_e{297 703 270 668 248 632 _c
226 596 209 557 196 516 _c
183 474 174 432 168 388 _c
162 344 159 298 159 250 _c
159 38 215 -122 329 -232 _c
331 -234 332 -236 332 -240 _c
332 -242 331 -244 329 -246 _c
327 -248 326 -249 324 -249 _c
315 -249 _l
311 -249 310 -248 310 -247 _c
_cl}_e}_d
end readonly def

/BuildGlyph
 {exch begin
 CharStrings exch
 2 copy known not{pop /.notdef}if
 true 3 1 roll get exec
 end}_d

/BuildChar {
 1 index /Encoding get exch get
 1 index /BuildGlyph get exec
}_d

FontName currentdict end definefont pop
%!PS-Adobe-3.0 Resource-Font
%%Title: cmsy10
%%Copyright: Copyright (C) 1994, Basil K. Malyshev. All Rights Reserved.012BaKoMa Fonts Collection, Level-B.
%%Creator: Converted from TrueType to type 3 by PPR
25 dict begin
/_d{bind def}bind def
/_m{moveto}_d
/_l{lineto}_d
/_cl{closepath eofill}_d
/_c{curveto}_d
/_sc{7 -1 roll{setcachedevice}{pop pop pop pop pop pop}ifelse}_d
/_e{exec}_d
/FontName /Cmsy10 def
/PaintType 0 def
/FontMatrix[.001 0 0 .001 0 0]def
/FontBBox[-29 -960 1123 779]def
/FontType 3 def
/Encoding [ /asteriskmath /minus ] def
/FontInfo 10 dict dup begin
/FamilyName (cmsy10) def
/FullName (cmsy10) def
/Notice (Copyright (C) 1994, Basil K. Malyshev. All Rights Reserved.012BaKoMa Fonts Collection, Level-B. ) def
/Weight (Regular) def
/Version (1.1/12-Nov-94) def
/ItalicAngle 0.0 def
/isFixedPitch false def
/UnderlinePosition -133 def
/UnderlineThickness 20 def
end readonly def
/CharStrings 2 dict dup begin
/asteriskmath{{500 0 65 34 434 465 _sc
94 127 _m
86 127 80 130 74 136 _c
68 142 65 149 65 157 _c
65 168 69 176 79 181 _c
223 250 _l
79 318 _l
69 322 65 330 65 342 _c
65 349 68 356 74 362 _c
80 368 86 372 94 372 _c
99 372 104 370 108 367 _c
236 274 _l
221 437 _l
221 445 223 451 229 457 _c
235 462 242 465 250 465 _c
258 465 264 462 270 457 _c
275 452 278 446 278 439 _c
}_e{278 437 _l
263 274 _l
391 367 _l
395 370 399 372 405 372 _c
413 372 419 368 425 362 _c
431 356 434 349 434 342 _c
434 330 429 322 420 318 _c
276 250 _l
420 181 _l
429 176 434 168 434 157 _c
434 149 431 142 425 136 _c
419 130 413 127 405 127 _c
399 127 395 128 391 132 _c
263 225 _l
278 63 _l
278 60 _l
278 52 275 46 269 41 _c
263 36 257 34 250 34 _c
}_e{242 34 235 36 229 42 _c
223 47 221 54 221 62 _c
236 225 _l
108 132 _l
104 128 99 127 94 127 _c
_cl}_e}_d
/minus{777 0 83 230 694 270 _sc
102 230 _m
96 230 92 232 88 236 _c
84 240 83 245 83 250 _c
83 254 84 259 88 263 _c
92 267 96 270 102 270 _c
676 270 _l
681 270 685 267 689 263 _c
692 259 694 254 694 250 _c
694 245 692 240 689 236 _c
685 232 681 230 676 230 _c
102 230 _l
_cl}_d
end readonly def

/BuildGlyph
 {exch begin
 CharStrings exch
 2 copy known not{pop /.notdef}if
 true 3 1 roll get exec
 end}_d

/BuildChar {
 1 index /Encoding get exch get
 1 index /BuildGlyph get exec
}_d

FontName currentdict end definefont pop
end
%%EndProlog
mpldict begin
48.561 186.319 translate
514.878 419.363 0 0 clipbox
100000 setmiterlimit
gsave
0 0 m
514.878125 0 l
514.878125 419.362963 l
0 419.362963 l
cl
1.000 setgray
fill
grestore
gsave
61.278125 60.750463 m
507.678125 60.750463 l
507.678125 406.350463 l
61.278125 406.350463 l
cl
1.000 setgray
fill
grestore
1.000 setlinewidth
1 setlinejoin
2 setlinecap
[] 0 setdash
1.000 0.647 0.000 setrgbcolor
gsave
446.4 345.6 61.28 60.75 clipbox
61.278125 64.590463 m
69.932819 64.949905 l
78.587513 65.342991 l
87.242207 65.772873 l
95.896901 66.242994 l
104.551594 66.75712 l
113.206288 67.31937 l
121.860982 67.93425 l
130.515676 68.606685 l
139.17037 69.342063 l
147.825064 70.146276 l
156.479758 71.025767 l
165.134452 71.987583 l
173.789145 73.039428 l
182.443839 74.189732 l
191.098533 75.447709 l
199.753227 76.823438 l
208.407921 78.327942 l
217.062615 79.973274 l
225.717309 81.772617 l
234.372003 83.740387 l
243.026696 85.892348 l
251.68139 88.245744 l
260.336084 90.819428 l
268.990778 93.63402 l
277.645472 96.712071 l
286.300166 100.078242 l
294.95486 103.759502 l
303.609554 107.785344 l
312.264247 112.188024 l
320.918941 117.002814 l
329.573635 122.268291 l
338.228329 128.026641 l
346.883023 134.323999 l
355.537717 141.210818 l
364.192411 148.742274 l
372.847105 156.97871 l
381.501798 165.986113 l
390.156492 175.836651 l
398.811186 186.609243 l
407.46588 198.3902 l
416.120574 211.273908 l
424.775268 225.36359 l
433.429962 240.77213 l
442.084656 257.622981 l
450.739349 276.051147 l
459.394043 296.204275 l
468.048737 318.243827 l
476.703431 342.346382 l
485.358125 368.705046 l
stroke
grestore
0.500 setlinewidth
0 setlinecap
0.000 0.000 1.000 setrgbcolor
gsave
446.4 345.6 61.28 60.75 clipbox
/o {
gsave
newpath
translate
0.5 setlinewidth
1 setlinejoin
0 setlinecap
0 -1.25 m
0.331504 -1.25 0.649475 -1.118292 0.883883 -0.883883 c
1.118292 -0.649475 1.25 -0.331504 1.25 0 c
1.25 0.331504 1.118292 0.649475 0.883883 0.883883 c
0.649475 1.118292 0.331504 1.25 0 1.25 c
-0.331504 1.25 -0.649475 1.118292 -0.883883 0.883883 c
-1.118292 0.649475 -1.25 0.331504 -1.25 0 c
-1.25 -0.331504 -1.118292 -0.649475 -0.883883 -0.883883 c
-0.649475 -1.118292 -0.331504 -1.25 0 -1.25 c
cl

gsave
0.000 0.000 1.000 setrgbcolor
fill
grestore
stroke
grestore
} bind def
70.2061 60.7856 o
74.6701 60.7939 o
79.1341 60.8173 o
83.5981 60.8519 o
88.0621 60.8987 o
92.5261 60.9624 o
96.9901 61.0348 o
101.454 61.1527 o
105.918 61.2626 o
110.382 61.4065 o
114.846 61.5396 o
119.31 61.7208 o
123.774 61.9883 o
128.238 62.2456 o
132.702 62.3993 o
137.166 62.704 o
141.63 62.9858 o
146.094 63.3936 o
150.558 63.7778 o
155.022 64.1849 o
159.486 64.6419 o
163.95 65.112 o
168.414 65.6497 o
172.878 66.3063 o
177.342 68.1303 o
181.806 68.0747 o
186.27 68.6392 o
190.734 69.1346 o
195.198 69.8988 o
199.662 70.7646 o
204.126 71.6383 o
208.59 74.0805 o
213.054 74.7872 o
217.518 76.4958 o
221.982 76.4478 o
226.446 77.1046 o
230.91 78.4752 o
235.374 81.4256 o
239.838 82.3582 o
244.302 83.9647 o
248.766 86.8385 o
253.23 88.6081 o
257.694 90.4703 o
262.158 92.5739 o
266.622 93.1326 o
271.086 96.6662 o
275.55 99.0609 o
280.014 101.298 o
284.478 103.428 o
288.942 106.224 o
293.406 109.039 o
297.87 111.486 o
302.334 112.69 o
306.798 117.288 o
311.262 118.68 o
315.726 124.316 o
320.19 126.574 o
324.654 130.31 o
329.118 133.558 o
333.582 136.451 o
338.046 140.263 o
342.51 143.892 o
346.974 148.123 o
351.438 152.153 o
355.902 156.243 o
360.366 160.471 o
364.83 159.827 o
369.294 169.608 o
373.758 168.195 o
378.222 172.966 o
382.686 177.522 o
387.15 182.424 o
391.614 187.211 o
396.078 192.434 o
400.542 197.498 o
405.006 202.887 o
409.47 208.066 o
413.934 214.069 o
418.398 229.303 o
422.862 235.222 o
427.326 241.473 o
431.79 249.361 o
436.254 255.747 o
440.718 262.113 o
445.182 258.838 o
449.646 265.519 o
454.11 273.496 o
458.574 292.071 o
463.038 302.971 o
467.502 306.947 o
471.966 317.231 o
476.43 329.507 o
480.894 339.438 o
485.358 342.41 o
grestore
1.000 setlinewidth
0 setlinejoin
2 setlinecap
0.000 setgray
gsave
61.278125 406.350463 m
507.678125 406.350463 l
stroke
grestore
gsave
507.678125 60.750463 m
507.678125 406.350463 l
stroke
grestore
gsave
61.278125 60.750463 m
507.678125 60.750463 l
stroke
grestore
gsave
61.278125 60.750463 m
61.278125 406.350463 l
stroke
grestore
0.500 setlinewidth
1 setlinejoin
0 setlinecap
[1 3] 0 setdash
0.502 setgray
gsave
446.4 345.6 61.28 60.75 clipbox
61.278125 60.750463 m
61.278125 406.350463 l
stroke
grestore
[] 0 setdash
0.000 setgray
gsave
/o {
gsave
newpath
translate
0.5 setlinewidth
1 setlinejoin
0 setlinecap
0 0 m
0 4 l

gsave
0.000 setgray
fill
grestore
stroke
grestore
} bind def
61.2781 60.7505 o
grestore
gsave
/o {
gsave
newpath
translate
0.5 setlinewidth
1 setlinejoin
0 setlinecap
0 0 m
0 -4 l

gsave
0.000 setgray
fill
grestore
stroke
grestore
} bind def
61.2781 406.35 o
grestore
/BitstreamVeraSans-Roman findfont
12.000 scalefont
setfont
gsave
53.818098 44.849008 translate
40.000000 rotate
0.000000 0.000000 m /zero glyphshow
grestore
[1 3] 0 setdash
0.502 setgray
gsave
446.4 345.6 61.28 60.75 clipbox
172.878125 60.750463 m
172.878125 406.350463 l
stroke
grestore
[] 0 setdash
0.000 setgray
gsave
/o {
gsave
newpath
translate
0.5 setlinewidth
1 setlinejoin
0 setlinecap
0 0 m
0 4 l

gsave
0.000 setgray
fill
grestore
stroke
grestore
} bind def
172.878 60.7505 o
grestore
gsave
/o {
gsave
newpath
translate
0.5 setlinewidth
1 setlinejoin
0 setlinecap
0 0 m
0 -4 l

gsave
0.000 setgray
fill
grestore
stroke
grestore
} bind def
172.878 406.35 o
grestore
gsave
153.711981 35.026410 translate
40.000000 rotate
0.000000 0.000000 m /five glyphshow
7.634766 0.000000 m /zero glyphshow
15.269531 0.000000 m /zero glyphshow
grestore
[1 3] 0 setdash
0.502 setgray
gsave
446.4 345.6 61.28 60.75 clipbox
284.478125 60.750463 m
284.478125 406.350463 l
stroke
grestore
[] 0 setdash
0.000 setgray
gsave
/o {
gsave
newpath
translate
0.5 setlinewidth
1 setlinejoin
0 setlinecap
0 0 m
0 4 l

gsave
0.000 setgray
fill
grestore
stroke
grestore
} bind def
284.478 60.7505 o
grestore
gsave
/o {
gsave
newpath
translate
0.5 setlinewidth
1 setlinejoin
0 setlinecap
0 0 m
0 -4 l

gsave
0.000 setgray
fill
grestore
stroke
grestore
} bind def
284.478 406.35 o
grestore
gsave
259.458923 30.115111 translate
40.000000 rotate
0.000000 0.000000 m /one glyphshow
7.634766 0.000000 m /zero glyphshow
15.269531 0.000000 m /zero glyphshow
22.904297 0.000000 m /zero glyphshow
grestore
[1 3] 0 setdash
0.502 setgray
gsave
446.4 345.6 61.28 60.75 clipbox
396.078125 60.750463 m
396.078125 406.350463 l
stroke
grestore
[] 0 setdash
0.000 setgray
gsave
/o {
gsave
newpath
translate
0.5 setlinewidth
1 setlinejoin
0 setlinecap
0 0 m
0 4 l

gsave
0.000 setgray
fill
grestore
stroke
grestore
} bind def
396.078 60.7505 o
grestore
gsave
/o {
gsave
newpath
translate
0.5 setlinewidth
1 setlinejoin
0 setlinecap
0 0 m
0 -4 l

gsave
0.000 setgray
fill
grestore
stroke
grestore
} bind def
396.078 406.35 o
grestore
gsave
371.058923 30.115111 translate
40.000000 rotate
0.000000 0.000000 m /one glyphshow
7.634766 0.000000 m /five glyphshow
15.269531 0.000000 m /zero glyphshow
22.904297 0.000000 m /zero glyphshow
grestore
[1 3] 0 setdash
0.502 setgray
gsave
446.4 345.6 61.28 60.75 clipbox
507.678125 60.750463 m
507.678125 406.350463 l
stroke
grestore
[] 0 setdash
0.000 setgray
gsave
/o {
gsave
newpath
translate
0.5 setlinewidth
1 setlinejoin
0 setlinecap
0 0 m
0 4 l

gsave
0.000 setgray
fill
grestore
stroke
grestore
} bind def
507.678 60.7505 o
grestore
gsave
/o {
gsave
newpath
translate
0.5 setlinewidth
1 setlinejoin
0 setlinecap
0 0 m
0 -4 l

gsave
0.000 setgray
fill
grestore
stroke
grestore
} bind def
507.678 406.35 o
grestore
gsave
482.658923 30.115111 translate
40.000000 rotate
0.000000 0.000000 m /two glyphshow
7.634766 0.000000 m /zero glyphshow
15.269531 0.000000 m /zero glyphshow
22.904297 0.000000 m /zero glyphshow
grestore
gsave
162.478125 11.200000 translate
0.000000 rotate
/BitstreamVeraSans-Roman findfont
15.0 scalefont
setfont
0.000000 0.609375 moveto
/N glyphshow

11.220703 0.609375 moveto
/u glyphshow

20.727539 0.609375 moveto
/m glyphshow

35.339355 0.609375 moveto
/b glyphshow

44.860840 0.609375 moveto
/e glyphshow

54.089355 0.609375 moveto
/r glyphshow

60.256348 0.609375 moveto
/space glyphshow

65.024414 0.609375 moveto
/o glyphshow

74.201660 0.609375 moveto
/f glyphshow

79.482422 0.609375 moveto
/space glyphshow

84.250488 0.609375 moveto
/t glyphshow

90.131836 0.609375 moveto
/r glyphshow

96.298828 0.609375 moveto
/a glyphshow

105.490723 0.609375 moveto
/n glyphshow

114.997559 0.609375 moveto
/s glyphshow

122.812500 0.609375 moveto
/i glyphshow

126.979980 0.609375 moveto
/t glyphshow

132.861328 0.609375 moveto
/i glyphshow

137.028809 0.609375 moveto
/o glyphshow

146.206055 0.609375 moveto
/n glyphshow

155.712891 0.609375 moveto
/s glyphshow

163.527832 0.609375 moveto
/space glyphshow

168.295898 0.609375 moveto
/i glyphshow

172.463379 0.609375 moveto
/n glyphshow

181.970215 0.609375 moveto
/space glyphshow

/Cmmi10 findfont
15.0 scalefont
setfont
186.738281 0.609375 moveto
/R glyphshow

198.120117 0.609375 moveto
/T glyphshow

206.879883 0.609375 moveto
/S glyphshow

/Cmmi10 findfont
10.5 scalefont
setfont
216.071777 -1.941562 moveto
/k glyphshow

/Cmr10 findfont
15.0 scalefont
setfont
222.488584 0.609375 moveto
/parenleft glyphshow

/Cmmi10 findfont
15.0 scalefont
setfont
228.311338 0.609375 moveto
/S glyphshow

/Cmr10 findfont
15.0 scalefont
setfont
237.503232 0.609375 moveto
/parenright glyphshow


grestore
[1 3] 0 setdash
0.502 setgray
gsave
446.4 345.6 61.28 60.75 clipbox
61.278125 60.750463 m
507.678125 60.750463 l
stroke
grestore
[] 0 setdash
0.000 setgray
gsave
/o {
gsave
newpath
translate
0.5 setlinewidth
1 setlinejoin
0 setlinecap
0 0 m
4 0 l

gsave
0.000 setgray
fill
grestore
stroke
grestore
} bind def
61.2781 60.7505 o
grestore
gsave
/o {
gsave
newpath
translate
0.5 setlinewidth
1 setlinejoin
0 setlinecap
0 0 m
-4 0 l

gsave
0.000 setgray
fill
grestore
stroke
grestore
} bind def
507.678 60.7505 o
grestore
gsave
49.637500 57.437963 translate
0.000000 rotate
0.000000 0.000000 m /zero glyphshow
grestore
[1 3] 0 setdash
0.502 setgray
gsave
446.4 345.6 61.28 60.75 clipbox
61.278125 99.150463 m
507.678125 99.150463 l
stroke
grestore
[] 0 setdash
0.000 setgray
gsave
/o {
gsave
newpath
translate
0.5 setlinewidth
1 setlinejoin
0 setlinecap
0 0 m
4 0 l

gsave
0.000 setgray
fill
grestore
stroke
grestore
} bind def
61.2781 99.1505 o
grestore
gsave
/o {
gsave
newpath
translate
0.5 setlinewidth
1 setlinejoin
0 setlinecap
0 0 m
-4 0 l

gsave
0.000 setgray
fill
grestore
stroke
grestore
} bind def
507.678 99.1505 o
grestore
gsave
34.356250 95.837963 translate
0.000000 rotate
0.000000 0.000000 m /two glyphshow
7.634766 0.000000 m /zero glyphshow
15.269531 0.000000 m /zero glyphshow
grestore
[1 3] 0 setdash
0.502 setgray
gsave
446.4 345.6 61.28 60.75 clipbox
61.278125 137.550463 m
507.678125 137.550463 l
stroke
grestore
[] 0 setdash
0.000 setgray
gsave
/o {
gsave
newpath
translate
0.5 setlinewidth
1 setlinejoin
0 setlinecap
0 0 m
4 0 l

gsave
0.000 setgray
fill
grestore
stroke
grestore
} bind def
61.2781 137.55 o
grestore
gsave
/o {
gsave
newpath
translate
0.5 setlinewidth
1 setlinejoin
0 setlinecap
0 0 m
-4 0 l

gsave
0.000 setgray
fill
grestore
stroke
grestore
} bind def
507.678 137.55 o
grestore
gsave
34.356250 134.237963 translate
0.000000 rotate
0.000000 0.000000 m /four glyphshow
7.634766 0.000000 m /zero glyphshow
15.269531 0.000000 m /zero glyphshow
grestore
[1 3] 0 setdash
0.502 setgray
gsave
446.4 345.6 61.28 60.75 clipbox
61.278125 175.950463 m
507.678125 175.950463 l
stroke
grestore
[] 0 setdash
0.000 setgray
gsave
/o {
gsave
newpath
translate
0.5 setlinewidth
1 setlinejoin
0 setlinecap
0 0 m
4 0 l

gsave
0.000 setgray
fill
grestore
stroke
grestore
} bind def
61.2781 175.95 o
grestore
gsave
/o {
gsave
newpath
translate
0.5 setlinewidth
1 setlinejoin
0 setlinecap
0 0 m
-4 0 l

gsave
0.000 setgray
fill
grestore
stroke
grestore
} bind def
507.678 175.95 o
grestore
gsave
34.356250 172.637963 translate
0.000000 rotate
0.000000 0.000000 m /six glyphshow
7.634766 0.000000 m /zero glyphshow
15.269531 0.000000 m /zero glyphshow
grestore
[1 3] 0 setdash
0.502 setgray
gsave
446.4 345.6 61.28 60.75 clipbox
61.278125 214.350463 m
507.678125 214.350463 l
stroke
grestore
[] 0 setdash
0.000 setgray
gsave
/o {
gsave
newpath
translate
0.5 setlinewidth
1 setlinejoin
0 setlinecap
0 0 m
4 0 l

gsave
0.000 setgray
fill
grestore
stroke
grestore
} bind def
61.2781 214.35 o
grestore
gsave
/o {
gsave
newpath
translate
0.5 setlinewidth
1 setlinejoin
0 setlinecap
0 0 m
-4 0 l

gsave
0.000 setgray
fill
grestore
stroke
grestore
} bind def
507.678 214.35 o
grestore
gsave
34.356250 211.037963 translate
0.000000 rotate
0.000000 0.000000 m /eight glyphshow
7.634766 0.000000 m /zero glyphshow
15.269531 0.000000 m /zero glyphshow
grestore
[1 3] 0 setdash
0.502 setgray
gsave
446.4 345.6 61.28 60.75 clipbox
61.278125 252.750463 m
507.678125 252.750463 l
stroke
grestore
[] 0 setdash
0.000 setgray
gsave
/o {
gsave
newpath
translate
0.5 setlinewidth
1 setlinejoin
0 setlinecap
0 0 m
4 0 l

gsave
0.000 setgray
fill
grestore
stroke
grestore
} bind def
61.2781 252.75 o
grestore
gsave
/o {
gsave
newpath
translate
0.5 setlinewidth
1 setlinejoin
0 setlinecap
0 0 m
-4 0 l

gsave
0.000 setgray
fill
grestore
stroke
grestore
} bind def
507.678 252.75 o
grestore
gsave
26.715625 249.437963 translate
0.000000 rotate
0.000000 0.000000 m /one glyphshow
7.634766 0.000000 m /zero glyphshow
15.269531 0.000000 m /zero glyphshow
22.904297 0.000000 m /zero glyphshow
grestore
[1 3] 0 setdash
0.502 setgray
gsave
446.4 345.6 61.28 60.75 clipbox
61.278125 291.150463 m
507.678125 291.150463 l
stroke
grestore
[] 0 setdash
0.000 setgray
gsave
/o {
gsave
newpath
translate
0.5 setlinewidth
1 setlinejoin
0 setlinecap
0 0 m
4 0 l

gsave
0.000 setgray
fill
grestore
stroke
grestore
} bind def
61.2781 291.15 o
grestore
gsave
/o {
gsave
newpath
translate
0.5 setlinewidth
1 setlinejoin
0 setlinecap
0 0 m
-4 0 l

gsave
0.000 setgray
fill
grestore
stroke
grestore
} bind def
507.678 291.15 o
grestore
gsave
26.715625 287.837963 translate
0.000000 rotate
0.000000 0.000000 m /one glyphshow
7.634766 0.000000 m /two glyphshow
15.269531 0.000000 m /zero glyphshow
22.904297 0.000000 m /zero glyphshow
grestore
[1 3] 0 setdash
0.502 setgray
gsave
446.4 345.6 61.28 60.75 clipbox
61.278125 329.550463 m
507.678125 329.550463 l
stroke
grestore
[] 0 setdash
0.000 setgray
gsave
/o {
gsave
newpath
translate
0.5 setlinewidth
1 setlinejoin
0 setlinecap
0 0 m
4 0 l

gsave
0.000 setgray
fill
grestore
stroke
grestore
} bind def
61.2781 329.55 o
grestore
gsave
/o {
gsave
newpath
translate
0.5 setlinewidth
1 setlinejoin
0 setlinecap
0 0 m
-4 0 l

gsave
0.000 setgray
fill
grestore
stroke
grestore
} bind def
507.678 329.55 o
grestore
gsave
26.715625 326.237963 translate
0.000000 rotate
0.000000 0.000000 m /one glyphshow
7.634766 0.000000 m /four glyphshow
15.269531 0.000000 m /zero glyphshow
22.904297 0.000000 m /zero glyphshow
grestore
[1 3] 0 setdash
0.502 setgray
gsave
446.4 345.6 61.28 60.75 clipbox
61.278125 367.950463 m
507.678125 367.950463 l
stroke
grestore
[] 0 setdash
0.000 setgray
gsave
/o {
gsave
newpath
translate
0.5 setlinewidth
1 setlinejoin
0 setlinecap
0 0 m
4 0 l

gsave
0.000 setgray
fill
grestore
stroke
grestore
} bind def
61.2781 367.95 o
grestore
gsave
/o {
gsave
newpath
translate
0.5 setlinewidth
1 setlinejoin
0 setlinecap
0 0 m
-4 0 l

gsave
0.000 setgray
fill
grestore
stroke
grestore
} bind def
507.678 367.95 o
grestore
gsave
26.715625 364.637963 translate
0.000000 rotate
0.000000 0.000000 m /one glyphshow
7.634766 0.000000 m /six glyphshow
15.269531 0.000000 m /zero glyphshow
22.904297 0.000000 m /zero glyphshow
grestore
[1 3] 0 setdash
0.502 setgray
gsave
446.4 345.6 61.28 60.75 clipbox
61.278125 406.350463 m
507.678125 406.350463 l
stroke
grestore
[] 0 setdash
0.000 setgray
gsave
/o {
gsave
newpath
translate
0.5 setlinewidth
1 setlinejoin
0 setlinecap
0 0 m
4 0 l

gsave
0.000 setgray
fill
grestore
stroke
grestore
} bind def
61.2781 406.35 o
grestore
gsave
/o {
gsave
newpath
translate
0.5 setlinewidth
1 setlinejoin
0 setlinecap
0 0 m
-4 0 l

gsave
0.000 setgray
fill
grestore
stroke
grestore
} bind def
507.678 406.35 o
grestore
gsave
26.715625 403.037963 translate
0.000000 rotate
0.000000 0.000000 m /one glyphshow
7.634766 0.000000 m /eight glyphshow
15.269531 0.000000 m /zero glyphshow
22.904297 0.000000 m /zero glyphshow
grestore
/BitstreamVeraSans-Roman findfont
15.000 scalefont
setfont
gsave
18.590625 176.066088 translate
90.000000 rotate
0.000000 0.000000 m /T glyphshow
9.162598 0.000000 m /i glyphshow
13.330078 0.000000 m /m glyphshow
27.941895 0.000000 m /e glyphshow
37.170410 0.000000 m /space glyphshow
41.938477 0.000000 m /parenleft glyphshow
47.790527 0.000000 m /s glyphshow
55.605469 0.000000 m /e glyphshow
64.833984 0.000000 m /c glyphshow
73.081055 0.000000 m /o glyphshow
82.258301 0.000000 m /n glyphshow
91.765137 0.000000 m /d glyphshow
101.286621 0.000000 m /s glyphshow
109.101562 0.000000 m /parenright glyphshow
grestore
1.000 setlinewidth
0 setlinejoin
gsave
68.778125 348.834838 m
357.684375 348.834838 l
357.684375 398.850463 l
68.778125 398.850463 l
cl
gsave
1.000 setgray
fill
grestore
stroke
grestore
1 setlinejoin
2 setlinecap
1.000 0.647 0.000 setrgbcolor
gsave
79.278125 386.100463 m
100.278125 386.100463 l
stroke
grestore
0.000 setgray
gsave
116.778125 380.850463 translate
0.000000 rotate
/Cmmi10 findfont
15.0 scalefont
setfont
0.000000 0.750000 moveto
/F glyphshow

/Cmr10 findfont
15.0 scalefont
setfont
9.645996 0.750000 moveto
/parenleft glyphshow

/Cmmi10 findfont
15.0 scalefont
setfont
15.468750 0.750000 moveto
/x glyphshow

/Cmr10 findfont
15.0 scalefont
setfont
24.030762 0.750000 moveto
/parenright glyphshow

32.487305 0.750000 moveto
/equal glyphshow

46.773926 0.750000 moveto
/two glyphshow

54.273926 0.750000 moveto
/zero glyphshow

/Cmmi10 findfont
15.0 scalefont
setfont
61.773926 0.750000 moveto
/period glyphshow

/Cmr10 findfont
15.0 scalefont
setfont
68.560547 0.750000 moveto
/zero glyphshow

/Cmsy10 findfont
15.0 scalefont
setfont
78.694336 0.750000 moveto
/asteriskmath glyphshow

/Cmr10 findfont
15.0 scalefont
setfont
88.828125 0.750000 moveto
/one glyphshow

/Cmmi10 findfont
15.0 scalefont
setfont
96.328125 0.750000 moveto
/period glyphshow

/Cmr10 findfont
15.0 scalefont
setfont
103.114746 0.750000 moveto
/zero glyphshow

110.614746 0.750000 moveto
/zero glyphshow

118.114746 0.750000 moveto
/two glyphshow

125.614746 0.750000 moveto
/three glyphshow

/Cmmi10 findfont
10.5 scalefont
setfont
133.784367 6.489609 moveto
/x glyphshow

/Cmsy10 findfont
15.0 scalefont
setfont
143.368166 0.750000 moveto
/minus glyphshow

/Cmr10 findfont
15.0 scalefont
setfont
157.654787 0.750000 moveto
/zero glyphshow

/Cmmi10 findfont
15.0 scalefont
setfont
165.154787 0.750000 moveto
/period glyphshow

/Cmr10 findfont
15.0 scalefont
setfont
171.941408 0.750000 moveto
/zero glyphshow


grestore
0.500 setlinewidth
0 setlinecap
0.000 0.000 1.000 setrgbcolor
gsave
/o {
gsave
newpath
translate
0.5 setlinewidth
1 setlinejoin
0 setlinecap
0 -1.25 m
0.331504 -1.25 0.649475 -1.118292 0.883883 -0.883883 c
1.118292 -0.649475 1.25 -0.331504 1.25 0 c
1.25 0.331504 1.118292 0.649475 0.883883 0.883883 c
0.649475 1.118292 0.331504 1.25 0 1.25 c
-0.331504 1.25 -0.649475 1.118292 -0.883883 0.883883 c
-1.118292 0.649475 -1.25 0.331504 -1.25 0 c
-1.25 -0.331504 -1.118292 -0.649475 -0.883883 -0.883883 c
-0.649475 -1.118292 -0.331504 -1.25 0 -1.25 c
cl

gsave
0.000 0.000 1.000 setrgbcolor
fill
grestore
stroke
grestore
} bind def
79.2781 363.21 o
100.278 363.21 o
grestore
0.000 setgray
gsave
116.778125 357.959838 translate
0.000000 rotate
0.000000 0.000000 m /T glyphshow
9.162598 0.000000 m /i glyphshow
13.330078 0.000000 m /m glyphshow
27.941895 0.000000 m /e glyphshow
37.170410 0.000000 m /space glyphshow
41.938477 0.000000 m /w glyphshow
54.206543 0.000000 m /i glyphshow
58.374023 0.000000 m /t glyphshow
64.255371 0.000000 m /h glyphshow
73.762207 0.000000 m /space glyphshow
78.530273 0.000000 m /k glyphshow
87.216797 0.000000 m /equal glyphshow
99.785156 0.000000 m /two glyphshow
109.328613 0.000000 m /period glyphshow
114.096680 0.000000 m /period glyphshow
118.864746 0.000000 m /one glyphshow
128.408203 0.000000 m /zero glyphshow
137.951660 0.000000 m /zero glyphshow
147.495117 0.000000 m /comma glyphshow
152.263184 0.000000 m /space glyphshow
157.031250 0.000000 m /n glyphshow
166.538086 0.000000 m /equal glyphshow
179.106445 0.000000 m /one glyphshow
188.649902 0.000000 m /comma glyphshow
193.417969 0.000000 m /space glyphshow
198.186035 0.000000 m /m glyphshow
212.797852 0.000000 m /equal glyphshow
225.366211 0.000000 m /five glyphshow
grestore

end
showpage
