digraph G {
NAME C;
compound = true;
126 [ label=126: smtp_Smtp_Smtp_C_Smtp_C___S__C_ ];
126 -> 128 [ label=S?220() ];
128 [ label=128: smtp_Smtp_Ehlo_C_Ehlo_C___S__C_ ];
128 -> 129 [ label=S!Ehlo() ];
129 [ label=129: X ];
129 -> 129 [ label=S?250d() ];
129 -> 130 [ label=S?250() ];
130 [ label=130: smtp_Smtp_StartTls_C_StartTls_C___S__C_ ];
130 -> 131 [ label=S!StartTls() ];
131 [ label=131:  ];
131 -> 132 [ label=S?220() ];
132 [ label=132: smtp_Smtp_SecureEhlo_C_SecureEhlo_C___S__C_ ];
132 -> 133 [ label=S!Ehlo() ];
133 [ label=133: X1 ];
133 -> 133 [ label=S?250d() ];
133 -> 134 [ label=S?250() ];
134 [ label=134: Y, smtp_Smtp_Auth_C_Auth_C___S__C_ ];
134 -> 135 [ label=S!Auth() ];
135 [ label=135:  ];
135 -> 136 [ label=S?235() ];
136 [ label=136: Z1, smtp_Smtp_Mail_C_Mail_C___S__C_ ];
136 -> 137 [ label=S!Mail() ];
137 [ label=137:  ];
137 -> 136 [ label=S?501() ];
137 -> 138 [ label=S?250() ];
138 [ label=138: Z2 ];
138 -> 139 [ label=S!Rcpt() ];
139 [ label=139:  ];
139 -> 138 [ label=S?250() ];
138 -> 140 [ label=S!Data() ];
140 [ label=140:  ];
140 -> 141 [ label=S?354() ];
141 [ label=141: Z3 ];
141 -> 141 [ label=S!DataLine() ];
141 -> 141 [ label=S!Subject() ];
141 -> 142 [ label=S!EndOfData() ];
142 [ label=142:  ];
142 -> 136 [ label=S?250() ];
136 -> 143 [ label=S!Quit() ];
143 [ label=143:  ];
143 -> 127 [ label=S?221() ];
127 [ label=127:  ];
135 -> 134 [ label=S?535() ];
134 -> 127 [ label=S!Quit() ];
132 -> 127 [ label=S!Quit() ];
130 -> 127 [ label=S!Quit() ];
129 -> 144 [ label=S?220() ];
144 [ label=144: smtp_Smtp_StartTls_C_StartTls_C___S__C_ ];
144 -> 145 [ label=S!StartTls() ];
145 [ label=145:  ];
145 -> 146 [ label=S?220() ];
146 [ label=146: smtp_Smtp_SecureEhlo_C_SecureEhlo_C___S__C_ ];
146 -> 147 [ label=S!Ehlo() ];
147 [ label=147: X1 ];
147 -> 147 [ label=S?250d() ];
147 -> 148 [ label=S?250() ];
148 [ label=148: Y, smtp_Smtp_Auth_C_Auth_C___S__C_ ];
148 -> 149 [ label=S!Auth() ];
149 [ label=149:  ];
149 -> 150 [ label=S?235() ];
150 [ label=150: Z1, smtp_Smtp_Mail_C_Mail_C___S__C_ ];
150 -> 151 [ label=S!Mail() ];
151 [ label=151:  ];
151 -> 150 [ label=S?501() ];
151 -> 152 [ label=S?250() ];
152 [ label=152: Z2 ];
152 -> 153 [ label=S!Rcpt() ];
153 [ label=153:  ];
153 -> 152 [ label=S?250() ];
152 -> 154 [ label=S!Data() ];
154 [ label=154:  ];
154 -> 155 [ label=S?354() ];
155 [ label=155: Z3 ];
155 -> 155 [ label=S!DataLine() ];
155 -> 155 [ label=S!Subject() ];
155 -> 156 [ label=S!EndOfData() ];
156 [ label=156:  ];
156 -> 150 [ label=S?250() ];
150 -> 157 [ label=S!Quit() ];
157 [ label=157:  ];
157 -> 127 [ label=S?221() ];
149 -> 148 [ label=S?535() ];
148 -> 127 [ label=S!Quit() ];
146 -> 127 [ label=S!Quit() ];
144 -> 127 [ label=S!Quit() ];
128 -> 127 [ label=S!Quit() ];
}



digraph G {
NAME S;
compound = true;
47 [ label=47: smtp_Smtp_Smtp_S_Smtp_S___S__C_ ];
47 -> 49 [ label=C!220() ];
49 [ label=49: smtp_Smtp_Ehlo_S_Ehlo_S___S__C_ ];
49 -> 50 [ label=C?Ehlo() ];
50 [ label=50: X ];
50 -> 50 [ label=C!250d() ];
50 -> 51 [ label=C!250() ];
51 [ label=51: smtp_Smtp_StartTls_S_StartTls_S___S__C_ ];
51 -> 52 [ label=C?StartTls() ];
52 [ label=52:  ];
52 -> 53 [ label=C!220() ];
53 [ label=53: smtp_Smtp_SecureEhlo_S_SecureEhlo_S___S__C_ ];
53 -> 54 [ label=C?Ehlo() ];
54 [ label=54: X1 ];
54 -> 54 [ label=C!250d() ];
54 -> 55 [ label=C!250() ];
55 [ label=55: Y, smtp_Smtp_Auth_S_Auth_S___S__C_ ];
55 -> 56 [ label=C?Auth() ];
56 [ label=56:  ];
56 -> 57 [ label=C!235() ];
57 [ label=57: Z1, smtp_Smtp_Mail_S_Mail_S___S__C_ ];
57 -> 58 [ label=C?Mail() ];
58 [ label=58:  ];
58 -> 57 [ label=C!501() ];
58 -> 59 [ label=C!250() ];
59 [ label=59: Z2 ];
59 -> 60 [ label=C?Rcpt() ];
60 [ label=60:  ];
60 -> 59 [ label=C!250() ];
59 -> 61 [ label=C?Data() ];
61 [ label=61:  ];
61 -> 62 [ label=C!354() ];
62 [ label=62: Z3 ];
62 -> 62 [ label=C?DataLine() ];
62 -> 62 [ label=C?Subject() ];
62 -> 63 [ label=C?EndOfData() ];
63 [ label=63:  ];
63 -> 57 [ label=C!250() ];
57 -> 64 [ label=C?Quit() ];
64 [ label=64:  ];
64 -> 48 [ label=C!221() ];
48 [ label=48:  ];
56 -> 55 [ label=C!535() ];
55 -> 48 [ label=C?Quit() ];
53 -> 48 [ label=C?Quit() ];
51 -> 48 [ label=C?Quit() ];
50 -> 65 [ label=C!220() ];
65 [ label=65: smtp_Smtp_StartTls_S_StartTls_S___S__C_ ];
65 -> 66 [ label=C?StartTls() ];
66 [ label=66:  ];
66 -> 67 [ label=C!220() ];
67 [ label=67: smtp_Smtp_SecureEhlo_S_SecureEhlo_S___S__C_ ];
67 -> 68 [ label=C?Ehlo() ];
68 [ label=68: X1 ];
68 -> 68 [ label=C!250d() ];
68 -> 69 [ label=C!250() ];
69 [ label=69: Y, smtp_Smtp_Auth_S_Auth_S___S__C_ ];
69 -> 70 [ label=C?Auth() ];
70 [ label=70:  ];
70 -> 71 [ label=C!235() ];
71 [ label=71: Z1, smtp_Smtp_Mail_S_Mail_S___S__C_ ];
71 -> 72 [ label=C?Mail() ];
72 [ label=72:  ];
72 -> 71 [ label=C!501() ];
72 -> 73 [ label=C!250() ];
73 [ label=73: Z2 ];
73 -> 74 [ label=C?Rcpt() ];
74 [ label=74:  ];
74 -> 73 [ label=C!250() ];
73 -> 75 [ label=C?Data() ];
75 [ label=75:  ];
75 -> 76 [ label=C!354() ];
76 [ label=76: Z3 ];
76 -> 76 [ label=C?DataLine() ];
76 -> 76 [ label=C?Subject() ];
76 -> 77 [ label=C?EndOfData() ];
77 [ label=77:  ];
77 -> 71 [ label=C!250() ];
71 -> 78 [ label=C?Quit() ];
78 [ label=78:  ];
78 -> 48 [ label=C!221() ];
70 -> 69 [ label=C!535() ];
69 -> 48 [ label=C?Quit() ];
67 -> 48 [ label=C?Quit() ];
65 -> 48 [ label=C?Quit() ];
49 -> 48 [ label=C?Quit() ];
}
